<?xml version="1.0" encoding="UTF-8"?>
<svg width="10px" height="44px" viewBox="0 0 10 44" version="1.1" xmlns="http://www.w3.org/2000/svg" xmlns:xlink="http://www.w3.org/1999/xlink">
    <!-- Generator: Sketch 63.1 (92452) - https://sketch.com -->
    <title>arrow_04</title>
    <desc>Created with Sketch.</desc>
    <g id="Page-1" stroke="none" stroke-width="1" fill="none" fill-rule="evenodd">
        <g id="sub_landing_cloudAPI" transform="translate(-387.000000, -476.000000)" fill="#5E4DF8" fill-rule="nonzero">
            <path d="M392.5,508 L392.5,510.5 L396.5,510.5 L392,519.5 L387.5,510.5 L391.5,510.5 L391.5,508 L392.5,508 Z M392.5,500 L392.5,504 L391.5,504 L391.5,500 L392.5,500 Z M392.5,492 L392.5,496 L391.5,496 L391.5,492 L392.5,492 Z M392.5,484 L392.5,488 L391.5,488 L391.5,484 L392.5,484 Z M392.5,476 L392.5,480 L391.5,480 L391.5,476 L392.5,476 Z" id="arrow_04"></path>
        </g>
    </g>
</svg>