<svg xmlns="http://www.w3.org/2000/svg" xmlns:xlink="http://www.w3.org/1999/xlink" width="41" height="32" viewBox="0 0 41 32">
    <defs>
        <path id="a" d="M0 .002h40.185v31.983H0z"/>
    </defs>
    <g fill="none" fill-rule="evenodd">
        <mask id="b" fill="#fff">
            <use xlink:href="#a"/>
        </mask>
        <path fill="#474F59" d="M5.962 18.99h12.813V6.363H5.962V18.99zm13.407 1.192H5.365a.596.596 0 0 1-.597-.595V5.763c0-.328.266-.594.597-.594h14.004c.33 0 .6.266.6.594v13.824c0 .328-.27.595-.6.595z" mask="url(#b)"/>
        <path fill="#474F59" d="M10.267 9.84v5.486l4.309-2.743-4.31-2.743zm-.595 7.177a.589.589 0 0 1-.29-.078.595.595 0 0 1-.31-.522V8.749a.6.6 0 0 1 .92-.504l6.017 3.834a.603.603 0 0 1 0 1.009L9.99 16.922a.611.611 0 0 1-.319.095z" mask="url(#b)"/>
        <path fill="#F7778A" d="M24.084 6.365a.867.867 0 0 0-.867.864v8.604c0 .476.389.864.867.864H25.3c.325 0 .592.264.595.592l.011 1.064 1.909-1.528a.608.608 0 0 1 .374-.128h5.17a.866.866 0 0 0 .865-.864V7.23a.866.866 0 0 0-.865-.864h-9.274zm1.233 13.818a.593.593 0 0 1-.597-.589l-.015-1.702h-.62a2.064 2.064 0 0 1-2.063-2.059V7.23a2.06 2.06 0 0 1 2.062-2.06h9.274c1.134 0 2.06.923 2.06 2.06v8.604a2.065 2.065 0 0 1-2.06 2.06h-4.961l-2.706 2.16a.6.6 0 0 1-.374.13z" mask="url(#b)"/>
        <path fill="#F7778A" d="M31.92 12.136h-6.4a.597.597 0 1 1 0-1.194h6.4a.597.597 0 1 1 0 1.194M31.92 9.347h-6.4a.597.597 0 1 1 0-1.195h6.4a.597.597 0 1 1 0 1.195M29.731 14.915h-4.21a.599.599 0 0 1 0-1.198h4.21a.598.598 0 0 1 0 1.198" mask="url(#b)"/>
        <path fill="#474F59" d="M37.975 25.348H2.215a.887.887 0 0 1-.884-.888v-.76h37.532v.76c0 .49-.4.888-.888.888zm-14.497 4.866h-6.766a3.313 3.313 0 0 0 .456-1.659 3.34 3.34 0 0 0-.583-1.88h7.018a3.383 3.383 0 0 0-.58 1.88c0 .583.16 1.143.455 1.659zM2.218 1.33h35.754c.49 0 .89.397.89.884v20.144H1.332V2.214c0-.487.397-.884.887-.884zm37.97 21.686V2.214A2.219 2.219 0 0 0 37.972.002H2.218A2.22 2.22 0 0 0 0 2.214V24.46a2.22 2.22 0 0 0 2.215 2.216h12.56c.688.536 1.067 1.195 1.067 1.88 0 .597-.287 1.168-.809 1.658H7.546a.885.885 0 1 0 0 1.772h25.099a.887.887 0 0 0 0-1.772h-7.488c-.522-.49-.809-1.061-.809-1.659 0-.684.383-1.343 1.067-1.88h12.56c1.221 0 2.213-.994 2.213-2.215v-1.444z" mask="url(#b)"/>
    </g>
</svg>
