<svg xmlns="http://www.w3.org/2000/svg" xmlns:xlink="http://www.w3.org/1999/xlink" width="38" height="31" viewBox="0 0 38 31">
    <defs>
        <path id="a" d="M0 .822h37.414V30.6H0z"/>
        <path id="c" d="M0 30.68h37.414V.9H0z"/>
    </defs>
    <g fill="none" fill-rule="evenodd">
        <g transform="translate(0 .08)">
            <mask id="b" fill="#fff">
                <use xlink:href="#a"/>
            </mask>
            <path fill="#474F59" d="M35.356 24.42H2.062a.826.826 0 0 1-.823-.826v-.707h34.943v.707a.828.828 0 0 1-.826.826zm-13.497 4.53h-6.3c.276-.48.424-1 .424-1.544a3.11 3.11 0 0 0-.542-1.75h6.534a3.15 3.15 0 0 0-.54 1.75c0 .543.148 1.064.424 1.545zM2.065 2.06h33.288c.457 0 .83.37.83.823v18.755H1.238V2.882c0-.453.37-.823.826-.823zm35.351 20.19V2.882c0-1.134-.926-2.06-2.063-2.06H2.065c-1.14 0-2.066.926-2.066 2.06v20.712c0 1.137.927 2.063 2.063 2.063h11.694c.64.5.994 1.112.994 1.75 0 .556-.268 1.088-.754 1.544H7.025a.824.824 0 1 0 0 1.65h23.368a.826.826 0 0 0 0-1.65h-6.971c-.486-.456-.753-.988-.753-1.545 0-.637.356-1.25.993-1.75h11.694c1.137 0 2.06-.925 2.06-2.062v-1.345z" mask="url(#b)"/>
        </g>
        <mask id="d" fill="#fff">
            <use xlink:href="#c"/>
        </mask>
        <path fill="#F7778A" d="M4.695 18.332H17.48V5.548H4.695v12.784zm13.406 1.237H4.08a.622.622 0 0 1-.621-.616V4.929c0-.34.28-.615.62-.615h14.022c.34 0 .618.275.618.615v14.024a.62.62 0 0 1-.618.616z" mask="url(#d)"/>
        <path fill="#F7778A" d="M9.084 9.499v4.868l4.217-2.435-4.217-2.433zm-.619 6.558a.617.617 0 0 1-.618-.618v-7.01a.63.63 0 0 1 .308-.54.636.636 0 0 1 .62 0l6.073 3.508a.619.619 0 0 1 0 1.072l-6.072 3.505a.596.596 0 0 1-.31.083z" mask="url(#d)"/>
        <path fill="#474F59" d="M32.938 5.547H21.806a.62.62 0 0 1-.618-.619.62.62 0 0 1 .618-.615h11.132a.617.617 0 0 1 0 1.234M29.605 8.326h-7.8a.618.618 0 0 1 0-1.237h7.8a.62.62 0 0 1 .619.619.62.62 0 0 1-.619.618M22.426 12.78h2.854V11.1h-2.854v1.682zm3.47 1.24h-4.09a.618.618 0 0 1-.616-.618V10.48c0-.342.275-.62.615-.62h4.09c.344 0 .619.278.619.62v2.922c0 .34-.275.618-.618.618zM29.465 12.78h2.854V11.1h-2.854v1.682zm3.472 1.24h-4.09a.62.62 0 0 1-.619-.618V10.48a.62.62 0 0 1 .619-.62h4.09c.34 0 .616.278.616.62v2.922c0 .34-.275.618-.616.618zM22.426 18.332h2.854v-1.685h-2.854v1.685zm3.47 1.237h-4.09a.617.617 0 0 1-.616-.616v-2.924c0-.34.275-.616.615-.616h4.09c.344 0 .619.276.619.616v2.924a.618.618 0 0 1-.618.616zM29.465 18.332h2.854v-1.685h-2.854v1.685zm3.472 1.237h-4.09a.62.62 0 0 1-.619-.616v-2.924c0-.34.279-.616.619-.616h4.09c.34 0 .616.276.616.616v2.924a.617.617 0 0 1-.616.616z" mask="url(#d)"/>
    </g>
</svg>
