<svg xmlns="http://www.w3.org/2000/svg" width="124" height="118" viewBox="0 0 124 118">
    <g fill="none" fill-rule="evenodd">
        <path stroke="#344154" stroke-linecap="round" stroke-width="2.629" d="M51.152 57.128H49.33a3.004 3.004 0 0 1-3.005-3.005v-1.619A3.004 3.004 0 0 1 49.33 49.5h2.489M70.815 57.128h1.823a3.004 3.004 0 0 0 3.005-3.005v-1.619a3.004 3.004 0 0 0-3.005-3.004H70.15"/>
        <path stroke="#344154" stroke-linecap="round" stroke-width="2.629" d="M49.159 49.5c0-7.546 5.646-12.327 11.824-12.327 6.116 0 11.826 4.708 11.826 12.327M80.511 87.111V75.966c0-1.538-.38-3.068-1.196-4.372a7.396 7.396 0 0 0-1.629-1.85c-2.709-2.178-9.677-5.956-9.677-5.956M53.959 63.788s-6.97 3.778-9.678 5.956a7.396 7.396 0 0 0-1.629 1.85c-.816 1.304-1.196 2.834-1.196 4.373V87.11"/>
        <path stroke="#344154" stroke-linecap="round" stroke-width="2.629" d="M70.815 55.247c0 6.744-4.402 12.211-9.831 12.211-5.43 0-9.832-5.467-9.832-12.21 0-6.744 4.402-12.211 9.832-12.211 5.43 0 9.831 5.467 9.831 12.21z"/>
        <path stroke="#344154" stroke-linecap="round" stroke-width="2.629" d="M62.814 2.075L78.51 33.88a9.554 9.554 0 0 0 7.195 5.227l35.098 5.1c1.078.157 1.508 1.481.728 2.241L96.134 71.203a9.557 9.557 0 0 0-2.748 8.459l5.995 34.955c.184 1.074-.942 1.892-1.906 1.386L66.083 99.498a9.555 9.555 0 0 0-8.894 0l-31.392 16.505c-.964.506-2.09-.312-1.906-1.386l5.995-34.955a9.556 9.556 0 0 0-2.748-8.459L1.74 46.447c-.78-.76-.35-2.084.728-2.24l35.098-5.1a9.553 9.553 0 0 0 7.195-5.228L60.458 2.075c.482-.976 1.874-.976 2.356 0z"/>
        <path fill="#7D71D1" d="M77.17 89.711c-3.537-.608-7.046-1.786-10.626-1.506-4.37.342-8.301 2.867-11.22 6.184a15.036 15.036 0 0 1 6.312-1.4c2.417 0 4.825.594 6.965 1.719l24.042 12.64-3.063-17.859c-4.08.828-8.306.927-12.41.222"/>
    </g>
</svg>
