<?xml version="1.0" encoding="UTF-8"?>
<svg width="24px" height="19px" viewBox="0 0 24 19" version="1.1" xmlns="http://www.w3.org/2000/svg" xmlns:xlink="http://www.w3.org/1999/xlink">
    <!-- Generator: Sketch 53.2 (72643) - https://sketchapp.com -->
    <title>ico_download_w@2x</title>
    <desc>Created with Sketch.</desc>
    <g id="Page-1" stroke="none" stroke-width="1" fill="none" fill-rule="evenodd">
        <g id="Landing_9th" transform="translate(-1062.000000, -4386.000000)" fill="#FFFFFF">
            <g id="ico_download_w" transform="translate(1062.000000, 4386.333333)">
                <polygon id="Fill-1" points="9.60032232 0 9.62127317 6.28919668 6 6.28919668 12 12 18 6.28919668 14.3996777 6.28919668 14.3996777 0"></polygon>
                <polygon id="Fill-2" points="19.999775 11 19.999775 14.7503164 4.00022501 14.7503164 4.00022501 11 0 11 0 14.7503164 0 18.5 24 18.5 24 11"></polygon>
            </g>
        </g>
    </g>
</svg>