<?xml version="1.0" encoding="UTF-8"?>
<svg width="40px" height="40px" viewBox="0 0 40 40" version="1.1" xmlns="http://www.w3.org/2000/svg" xmlns:xlink="http://www.w3.org/1999/xlink">
    <!-- Generator: Sketch 63.1 (92452) - https://sketch.com -->
    <title>ico_footer_facebook@2x</title>
    <desc>Created with Sketch.</desc>
    <defs>
        <polygon id="path-1" points="0.000290909091 0 39.6981818 0 39.6981818 39.6981091 0.000290909091 39.6981091"></polygon>
    </defs>
    <g id="Page-1" stroke="none" stroke-width="1" fill="none" fill-rule="evenodd">
        <g id="Landing_9th" transform="translate(-223.000000, -4642.000000)">
            <g id="ico_footer_facebook" transform="translate(223.000000, 4642.000000)">
                <mask id="mask-2" fill="white">
                    <use xlink:href="#path-1"></use>
                </mask>
                <g id="Clip-2"></g>
                <path d="M25.3552,11.7737455 C25.3552,11.9395636 25.2206545,12.0733818 25.0555636,12.0733818 L22.6686545,12.0733818 C22.0824727,12.0733818 21.6082909,12.5482909 21.6082909,13.1337455 L21.6082909,15.6333818 L25.0032,15.6333818 C25.1784727,15.6333818 25.3159273,15.7839273 25.3013818,15.9584727 L25.0039273,19.4813818 C24.9901091,19.6362909 24.8606545,19.7555636 24.7050182,19.7555636 L21.6082909,19.7555636 L21.6082909,31.4472 C21.6082909,31.6122909 21.4737455,31.7468364 21.3086545,31.7468364 L17.0366545,31.7468364 C16.8708364,31.7468364 16.7362909,31.6122909 16.7362909,31.4472 L16.7362909,19.9424727 L16.7362909,19.7555636 L14.6002909,19.7555636 C14.4344727,19.7555636 14.3013818,19.6210182 14.3013818,19.4559273 L14.3013818,15.9330182 C14.3013818,15.7672 14.4344727,15.6333818 14.6002909,15.6333818 L16.7362909,15.6333818 L16.7362909,12.2377455 C16.7362909,9.87047273 18.6548364,7.9512 21.0221091,7.9512 L25.0555636,7.9512 C25.2206545,7.9512 25.3552,8.08574545 25.3552,8.25083636 L25.3552,11.7737455 Z M19.8497455,-7.27272727e-05 C8.90429091,-7.27272727e-05 0.000290909091,8.90465455 0.000290909091,19.8493818 C0.000290909091,30.7933818 8.90429091,39.6981091 19.8497455,39.6981091 C30.7944727,39.6981091 39.6984727,30.7933818 39.6984727,19.8493818 C39.6984727,8.90465455 30.7944727,-7.27272727e-05 19.8497455,-7.27272727e-05 L19.8497455,-7.27272727e-05 Z" id="Fill-1" fill="#002748" mask="url(#mask-2)"></path>
            </g>
        </g>
    </g>
</svg>