<svg xmlns="http://www.w3.org/2000/svg" width="56" height="11" viewBox="0 0 56 11">
    <g fill="none" fill-rule="evenodd" opacity=".8">
        <g>
            <g>
                <g>
                    <path stroke="#4B5060" stroke-width="2" d="M-15 29L25.5 28.5" transform="translate(-822 -179) translate(368 124) rotate(90 227 282.5) matrix(0 1 1 0 -23.5 23.5)"/>
                    <path fill="#1E2438" d="M1 -0.5L9 4.5 1 9.5z" transform="translate(-822 -179) translate(368 124) rotate(90 227 282.5) matrix(0 -1 -1 0 9.5 9.5)"/>
                    <path fill="#1E2438" d="M1 46L9 51 1 56z" transform="translate(-822 -179) translate(368 124) rotate(90 227 282.5) rotate(90 5 51)"/>
                </g>
            </g>
        </g>
    </g>
</svg>
