<svg xmlns="http://www.w3.org/2000/svg" xmlns:xlink="http://www.w3.org/1999/xlink" width="190" height="132" viewBox="0 0 190 132">
    <defs>
        <path id="uajhs15m5a" d="M0.148 0.33L78.017 0.33 78.017 67.6 0.148 67.6z"/>
        <path id="4zwpxe37qc" d="M0.437 0.024L18.803 0.024 18.803 61.808 0.437 61.808z"/>
        <path id="3o6t61z2ee" d="M0.134 0.53L4.476 0.53 4.476 27.3 0.134 27.3z"/>
        <path id="tg8b4hd3mg" d="M0.481 0.087L12.373 0.087 12.373 33.8 0.481 33.8z"/>
    </defs>
    <g fill="none" fill-rule="evenodd">
        <g>
            <g>
                <path fill="#FFF" d="M116.6 57.479c2.274-3.581.42-6.33-.273-7.157-.068.016-.14.025-.212.025-4.001 0-7.37-.61-9.232-.977.091.162.182.322.275.493 1.14 2.11 1.71 5.913 1.805 8.376 1.76-.384 5.085-.99 7.637-.76M132.4 27.24c-.215.494-.788.72-1.284.503-2.02-.883-3.7.49-3.717.504-.183.153-.404.227-.625.227-.28 0-.556-.118-.749-.348-.345-.412-.291-1.028.122-1.374.106-.089 2.631-2.161 5.751-.795.493.215.718.79.502 1.283zm-4.206 7.156c-.704 0-1.275-.954-1.275-2.13s.571-2.129 1.275-2.129 1.275.953 1.275 2.13c0 1.175-.571 2.129-1.275 2.129zm21.985 9.923c-1.258-5.9-6.897-11.108-7.912-12.007-.388-.141-.778-.282-1.183-.412-6.428-2.067-9.807-8.75-12.042-13.172-.37-.732-.728-1.437-1.054-2.022-.75 1.543-3.082 6.662-2.911 10.376l.216 4.721c.01.184-.034.366-.126.526-.103.182-2.434 4.268-4.568 6.753.175.443.781 1.227 2.87 1.26.538.01.968.453.959.992-.003.14-.036.274-.092.394.076.164.11.35.083.543l-.24 1.774c1.072.294 2.776.617 3.958.31 1.913-.496 2.859-1.265 2.868-1.273.412-.34 1.027-.288 1.37.122.345.41.298 1.019-.11 1.367l-.065.051c.135.645.59 3.51-1.532 5.465-.705.65-1.406 1.064-1.969 1.397-.21.124-.473.279-.647.404.279.112.737.217 1.127.248.01 0 .02.005.03.005.033.003.065.01.097.018.03.006.061.011.09.02.032.011.062.024.092.038.027.01.054.022.08.035.032.018.062.04.092.06.02.014.041.027.06.043.031.025.06.054.087.084.015.016.032.03.046.047.025.03.046.064.068.097l.04.063c.005.01.013.02.019.03.013.027 1.333 2.681 2.818 3.83.754.586 2.758 2.137 6.464-2.174 2.808-3.268 5.445-8.589 5.47-8.643.24-.482.824-.68 1.306-.443.483.238.682.822.444 1.305-.08.16-1.44 2.902-3.28 5.715.683 1.49 2.715 6.012 3.719 9.199 2.912-1.904 5.8-3.25 6.014-3.348.187-.087.387-.108.576-.075-1.218-3.784-2.14-8.113-3.085-12.556l-.247-1.167zM58.238 42.098l3.823.485c.207.026.37.153.47.32-.115-.385-.234-.744-.354-1.072l-3.637-.46c-.104.224-.205.467-.302.727M63.358 65.678c.516-2.147.867-4.975.853-8.466-.002-.605-.011-1.2-.027-1.785l-1.71.211c.439 2.063 1.212 6.396.884 10.04" transform="translate(-579 -88) translate(579 88)"/>
                <g transform="translate(-579 -88) translate(579 88) translate(99.45 63.377)">
                    <mask id="amul0uyv8b" fill="#fff">
                        <use xlink:href="#uajhs15m5a"/>
                    </mask>
                    <path fill="#FFF" d="M65.41 8.2C63.657 7.279 62 6.408 60.537 5.355 58.861 4.147 57.515 2.422 56.388.33c-2.467 1.005-10.198 4.564-15.424 11.5C30.77 25.357 19.72 39.495 19.61 39.635c-.01.013-.023.021-.034.033-.03.036-.063.07-.099.101-.02.018-.041.034-.062.05-.034.025-.071.047-.11.068-.023.013-.046.026-.07.037-.04.017-.08.03-.121.042-.026.008-.052.017-.078.022-.008.001-.015.005-.022.006-.058.01-.115.015-.17.016h-.004l-.008-.001c-.106-.002-.212-.02-.314-.056-.046-.017-.084-.046-.127-.07-.05-.026-.104-.044-.15-.08l-.013-.013c-.01-.007-.016-.016-.024-.022-.074-.065-.137-.139-.187-.219-.006-.009-.013-.017-.018-.026-.053-.09-.087-.189-.107-.29-.002-.01-.009-.017-.01-.026L16.697 32.6l-.001-.009-3.875-21.586c-6.537-1.537-9.93.278-11.546 1.835-.056.073-.12.14-.193.194-.475.494-.773.947-.934 1.233.928 2.864 1.864 9.22 2.852 15.93.63 4.281 1.282 8.707 1.959 12.426 1.154 6.334 4.426 11.651 8.14 13.23 2.082.885 4.25.593 6.449-.867C29.76 48.2 52.958 24.085 53.19 23.842c.374-.388.991-.4 1.379-.028.389.373.4.99.028 1.379-.529.55-7.649 7.951-15.671 15.637-.417.472-2.898 3.617-2.298 10.907.163 1.97.59 3.7 1.042 5.532.669 2.703 1.36 5.5 1.157 9.12-.023.382-.081.79-.157 1.211H66.78c1.056-7.413 9.865-31.6 10.637-33.713 2.85-17.86-5.03-22.017-12.008-25.686" mask="url(#amul0uyv8b)"/>
                </g>
                <path fill="#FFF" d="M110.519 72.065l-.49-2.673c-5.737-2.164-8.631.512-9.355 1.342l.154 2.918c1.978-1.283 5.055-2.261 9.69-1.587M59.69 37.55c-1.1-1.233-2.307-2.206-2.967-2.7-.998 1.107-1.79 5.502-2.005 9.622l.791.055c.523-2.419 1.255-4.392 2.216-5.532.706-.839 1.373-1.265 1.966-1.445M61.98 43.878c-.028 0-.055-.002-.083-.006l-4.064-.514c-.066.238-.13.485-.192.74l2.951.374c.356.045.609.37.563.727-.041.328-.322.568-.644.568-.027 0-.055-.001-.083-.005l-3.022-.382c-.013-.002-.023-.01-.035-.012-.048.246-.092.499-.137.755l2.601.33c.356.045.608.37.563.726-.042.329-.321.568-.644.568-.028 0-.055-.001-.083-.005l-2.633-.333c-.034.248-.066.5-.096.753l2.074.263c.356.045.608.37.564.727-.043.328-.322.568-.645.568-.028 0-.055-.002-.083-.005l-2.05-.26c-.025.25-.047.503-.068.757l1.77.225c.356.045.608.37.563.726-.042.329-.322.568-.644.568-.028 0-.055-.001-.083-.005l-1.7-.215c-.016.252-.032.505-.045.76l1.37.174c.357.044.609.37.563.726-.041.329-.321.568-.644.568-.027 0-.054 0-.082-.005l-1.26-.16c-.008.255-.017.509-.021.763l.652.083c.356.045.608.37.563.727-.042.328-.321.568-.645.568-.027 0-.054-.002-.082-.005l-.503-.064c-.011 5.673.669 11.189 2.11 13.374.26.395.466.547.614.598l.036.01c.104.027.177.005.22-.008 3.1-.944 1.914-10.236.854-14.587-.007-.029-.008-.057-.012-.085-.002-.01-.007-.017-.009-.027-.002-.014 0-.027-.001-.04-.003-.035-.003-.07-.002-.104 0-.03.002-.06.005-.09.004-.034.01-.066.018-.098.007-.03.014-.06.024-.09.009-.029.021-.058.034-.087.013-.028.025-.056.04-.083.015-.028.033-.054.051-.08.017-.025.035-.05.054-.073.021-.025.044-.047.068-.07.02-.021.042-.042.065-.06.026-.021.052-.039.08-.057.026-.018.052-.033.079-.048l.088-.04c.031-.012.062-.023.093-.032.014-.004.026-.011.04-.014.02-.005.04-.005.06-.009.017-.003.034-.01.052-.012l2.94-.362c-.225-4.232-.787-7.795-1.492-10.281.002.04.014.078.008.118-.041.329-.321.569-.644.569M92.242 50.289c.594 1.228 1.108 2.34 1.378 3.038.195.502-.054 1.066-.556 1.26-.116.046-.235.067-.352.067-.357 0-.687-.205-.858-.533-.015 2.296.312 5.182 1.647 7.03 2.591 3.586 7.014 7.083 7.058 7.118 1.537-1.089 4.154-2.185 7.954-1.357.055-.514.256-2.115.761-3.63.338-1.01.982-2.394 1.484-3.413-1.436.263-2.483.534-2.506.54-.083.022-.166.031-.247.031-.433 0-.828-.29-.943-.729-.045-.17-.037-.34.006-.498-.023-.081-.038-.164-.038-.253 0-2.524-.638-6.41-1.589-8.17-.999-1.853-1.82-3.025-3.3-3.912-.631-.38-1.296-.322-1.758-.204.742 1.376 1.224 2.7 1.31 2.942.18.507-.085 1.065-.593 1.244-.107.038-.218.056-.326.056-.4 0-.777-.249-.919-.649-.36-1.014-1.56-3.861-2.781-4.849-.866-.7-2.237-.322-2.917-.066 2.52 3.244 3.008 5.93 3.028 6.05.09.53-.265 1.034-.796 1.125-.056.01-.111.014-.166.015-.466 0-.879-.336-.96-.81-.003-.023-.501-2.654-3.084-5.728-1.263-1.502-2.274-1.708-2.905-1.615.602 1.166 1.675 3.256 2.628 5.2.205.177.33.43.34.7M60.577 39.418c-.404-.148-.946.36-1.28.739l2.25.284c-.32-.556-.648-.906-.97-1.023M103.144 45.206c.108.065.205.134.308.202.062-.074.134-.14.22-.195 1.263-.785 1.382-1.783 1.239-2.515-1.794.977-4.356 1.793-5.679 2.182.026.032.051.062.076.095.76-.297 2.308-.685 3.836.23M93.952 81.071c.214 4.06 1.036 19.17 1.729 25.127.6 5.155 3.299 11.551 7.122 13.25 1.74.772 3.67.555 5.745-.631-2.864-2.747-5.107-7.25-6.057-12.467-.684-3.75-1.338-8.194-1.97-12.49-.724-4.92-1.42-9.639-2.086-12.844-.098.033-.201.055-.31.055h-4.173zM125.62 91.372l-7.441 4.888.687 3.83c1.405-1.805 3.814-4.906 6.754-8.718M153.752 59.887c-2.406 1.112-8.903 4.597-10.688 7.603v1.957c4.725-4.296 9.796-6.64 11.918-7.503-.325-.73-.63-1.492-.918-2.285-.085.093-.19.171-.312.228" transform="translate(-579 -88) translate(579 88)"/>
                <path fill="#FFF" d="M88.912 56.558c.36 0 .65.29.65.65 0 .065-.004 1.238-.227 2.537.422-.085.837-.165 1.247-.236-1.05-3.419-.634-7.39-.362-8.919-.745-1.522-1.583-3.173-2.207-4.389-.127.01-.258-.004-.387-.048-.872-.293-17.705-5.954-26.077-9.43.898 1.084 1.701 2.332 2.121 3.668.004.012.005.025.008.038 1.873 4.187 2.466 11.848 2.484 16.775.018 4.86-.655 8.979-1.808 11.736.833-.396 1.783-.838 2.823-1.311.983-3.58 1.147-8.76 1.17-10.874l.003-.14c.014-.358.317-.64.674-.625.358.014.638.314.625.672l-.001.108c-.022 1.972-.164 6.558-.963 10.18.495-.22 1.01-.445 1.534-.673.816-3.23.954-7.631.974-9.46l.002-.12c.013-.359.316-.64.673-.625.358.013.638.313.625.671v.088c-.02 1.705-.14 5.588-.8 8.815.503-.213 1.014-.427 1.537-.642.671-2.86.79-6.553.808-8.118l.002-.11c.015-.36.313-.635.676-.623.357.014.635.314.622.671v.076c-.016 1.454-.117 4.694-.653 7.516.507-.203 1.019-.403 1.535-.603.572-2.601.652-5.843.663-6.873l.001-.08c.013-.36.323-.64.673-.626.357.012.637.31.626.668-.01 1-.08 3.818-.533 6.368.51-.19 1.022-.38 1.538-.563.465-2.227.53-4.855.54-5.705 0 0 .116-.618.708-.531.592.087.591.516.591.516v-.007c-.008.814-.063 3.078-.424 5.23.51-.175 1.02-.346 1.531-.512.377-1.853.432-3.941.438-4.625 0 0-.024-.515.687-.515.695 0 .617.49.613.51-.006.656-.052 2.427-.337 4.189.51-.157 1.017-.307 1.522-.45.323-1.576.357-3.29.36-3.67 0 0 .071-.58.686-.58.614 0 .614.596.614.596v-.015c-.003.36-.032 1.794-.271 3.288.506-.133 1.008-.258 1.504-.375.306-1.37.312-2.827.312-2.843 0-.36.29-.65.65-.65M175.572 58.91c.346-.414.961-.468 1.374-.122.115.097 11.418 9.83 6.324 27.817-.122.43-.512.71-.938.71-.087 0-.177-.012-.266-.037-.518-.147-.819-.686-.672-1.204 4.755-16.787-5.595-25.703-5.7-25.792-.413-.345-.467-.96-.122-1.372m-.512 5.596c.329.428.248 1.04-.18 1.368-.176.135-.385.201-.593.201-.292 0-.581-.131-.773-.38-7.534-9.812-5.756-16.237-3.296-25.13 1.026-3.71 2.19-7.914 2.86-13.05 2.155-16.507-11.474-22.68-11.612-22.741-12.629-6.164-22.051-.836-27.682 2.348-.615.348-1.18.668-1.694.94-4.42 2.348-7.355 2.675-8.334 2.712-.696.505-1.06 1.092-1.107 1.79-.115 1.68 1.507 3.77 2.767 5.078.166-.388.323-.739.463-1.043-.732-2.549.03-3.042.329-3.231.925-.592 1.904.31 2.226.608.732.675 1.41 2.017 2.348 3.872 2.09 4.133 5.246 10.378 10.898 12.196.423.136.828.281 1.232.428.101.019.201.05.295.103 7.624 2.84 11.72 7.366 11.903 7.569.357.402.323 1.017-.079 1.375-.186.166-.417.248-.65.248-.267 0-.533-.11-.726-.324-.032-.036-2.317-2.536-6.547-4.91 1.998 2.407 4.2 5.73 4.977 9.38l.249 1.168c1.94 9.132 3.946 18.576 8.793 22.067 1.35.973 2.949 1.814 4.64 2.704 6.768 3.56 15.051 7.93 13.444 24.477.696-1.01 2.112-3.085 5.88-8.848 7.599-11.62-2.929-26.137-8.898-30.974-3.078-2.495-4.322-7.015-4.806-10.815-1.922 7.275-2.548 12.712 3.673 20.814M93.988 75.107l.227 4.014h3.782c-.124-.469-.247-.878-.369-1.206-.085-.23-.081-.482.012-.71.042-.103.414-.964 1.319-1.966l-.04-.755c-2.15.941-3.81.9-4.931.623M98.872 69.875c.005-.008.08-.114.222-.282-1.022-.83-4.766-3.968-7.173-7.3-.213-.295-.404-.608-.577-.931-.432.07-.87.148-1.318.236.897 1.234 3.452 4.73 4.835 6.423.139.17.216.382.22.602l.073 4.7c.74.046 1.735-.076 2.996-.63.22-.098.458-.102.672-.037l-.115-2.186c-.011-.21.047-.42.165-.595" transform="translate(-579 -88) translate(579 88)"/>
                <path fill="#11A0C0" d="M54.718 44.472c.215-4.12 1.008-8.515 2.005-9.622-.3-.225-.49-.356-.5-.362-.447-.3-.567-.905-.267-1.352.145-.217.363-.354.598-.406-.191.047-.354.111-.477.176-2.793 1.45-3.268 9.89-3.348 12.441-.016.523.384.966.906 1.003l1.516.108c.105-.67.226-1.313.359-1.93l-.792-.056zM57.308 32.868c.14.093 2.392 1.62 4.241 3.855 8.372 3.476 25.205 9.137 26.078 9.43.128.044.259.058.386.049-.546-1.066-.928-1.799-.94-1.822-.085-.162-.117-.337-.106-.507-9.333-3.156-25.72-8.923-28.503-10.753-.748-.492-1.4-.508-1.873-.4.241-.043.498.001.717.148M57.234 46.123c.044-.257.09-.509.137-.755-.036-.007-.067-.021-.1-.034.024.097.037.195.03.299-.013.186-.09.345-.191.487.021 0 .04-.008.063-.004l.061.007z" transform="translate(-579 -88) translate(579 88)"/>
                <path fill="#11A0C0" d="M57.57 44.09l.071.009c.062-.256.126-.503.192-.741l-.031-.004c-.356-.045-.608-.37-.563-.727.046-.356.369-.606.726-.563l.273.035c.097-.261.197-.504.302-.728l-.341-.043c-.356-.045-.609-.37-.563-.726.045-.356.37-.607.727-.564l.935.118c.333-.378.875-.886 1.28-.738.322.116.65.467.969 1.023l.065.008c-.434-1.043-1.148-2.034-1.92-2.9-.594.182-1.261.607-1.968 1.445-.96 1.14-1.692 3.114-2.214 5.534l.888.063c.167.012.319.07.451.154 0-.031-.01-.06-.006-.092.045-.357.37-.607.727-.563M60.203 72.08c-.246-.48-.057-1.067.422-1.313.201-.104 1.587-.81 3.73-1.827 1.152-2.757 1.825-6.876 1.807-11.736-.018-4.927-.61-12.588-2.484-16.775.104.383-.036.776-.33 1.013-.086.266-.325.455-.608.455-.027 0-.054-.001-.082-.005l-.481-.06c.12.327.238.686.353 1.072.051.086.078.183.085.287.704 2.486 1.267 6.049 1.492 10.28l.892-.11c.532-.067 1.02.315 1.087.849.065.534-.314 1.021-.848 1.087l-1.053.13c.014.584.024 1.18.027 1.785.013 3.49-.338 6.32-.854 8.466.328-3.644-.445-7.978-.884-10.04l-1.068.131c-.04.005-.08.008-.12.008-.476 0-.884-.35-.959-.829.005.029.006.056.013.085 1.06 4.351 2.246 13.643-.854 14.586-.043.014-.116.037-.22.01-.012-.004-.024-.008-.035-.01-.15-.052-.354-.204-.615-.6-1.441-2.184-2.122-7.7-2.11-13.373l-1.083-.137c-.357-.045-.609-.37-.564-.727.046-.356.37-.607.727-.563l.934.118c.006-.254.014-.508.022-.762l-.723-.092c-.356-.045-.608-.371-.563-.727.046-.356.371-.605.727-.563l.612.077c.014-.254.029-.507.045-.76l-.424-.053c-.357-.045-.608-.37-.563-.727.045-.356.369-.603.726-.563l.355.045c.02-.254.043-.507.068-.757l-.19-.024c-.356-.045-.608-.37-.563-.726.046-.356.371-.605.727-.564l.166.021c.03-.254.062-.505.096-.753l-.029-.003c-.356-.046-.608-.37-.563-.727.007-.064.034-.118.06-.174-.06.01-.114.034-.176.034-.023 0-.047-.001-.07-.003l-1.109-.079c-1.304 8.251-.55 20.016 1.837 23.636.443.672.914 1.061 1.362 1.274.772 1 1.613 1.24 2.238 1.24.103 0 .192-.014.282-.025-.276-.058-.528-.23-.667-.502" transform="translate(-579 -88) translate(579 88)"/>
                <path fill="#11A0C0" d="M61.056 53.855c-.015.003-.027.01-.04.013.031-.009.064-.016.099-.022-.02.004-.04.004-.06.009M56.33 46.539c.062 0 .116-.023.175-.034.104-.238.337-.39.604-.385.1-.141.179-.301.192-.488.007-.103-.007-.202-.03-.298-.25-.09-.417-.32-.422-.59-.132-.084-.284-.141-.452-.153l-.887-.064c-.133.617-.253 1.261-.359 1.93l1.109.079c.023.002.046.003.07.003M61.55 36.723c-1.943-.806-3.431-1.496-4.157-1.973-.282-.185-.377-.135-.418-.114-.085.044-.17.122-.252.214.66.495 1.866 1.467 2.968 2.7.609-.187 1.139-.115 1.551.034.986.359 1.787 1.395 2.436 2.844-.003-.012-.004-.025-.008-.037-.42-1.336-1.223-2.584-2.12-3.668" transform="translate(-579 -88) translate(579 88)"/>
                <path fill="#11A0C0" d="M56.223 34.488c.01.007.2.137.5.362.083-.092.166-.17.252-.214.042-.021.136-.072.418.113.726.478 2.213 1.167 4.156 1.974-1.849-2.235-4.102-3.762-4.24-3.855-.22-.147-.477-.19-.718-.147l-.036.008c-.237.053-.454.19-.599.407-.3.447-.18 1.053.267 1.352M61.242 37.585c-.412-.15-.942-.221-1.551-.036.773.866 1.487 1.857 1.92 2.9l1.21.154c.357.045.609.37.564.726-.006.04-.024.075-.037.113.294-.237.433-.63.33-1.014-.649-1.45-1.45-2.485-2.436-2.843M88.018 61.341c-.203-.16-.302-.433-.222-.697.059-.193.11-.391.154-.592-.496.115-.998.241-1.504.374-.09.557-.207 1.123-.365 1.645-.085.281-.343.461-.623.461-.061 0-.125-.009-.188-.028-.343-.104-.538-.467-.434-.81.086-.284.159-.583.22-.888-.504.144-1.011.294-1.521.45-.104.64-.238 1.28-.414 1.864-.085.28-.343.461-.622.462-.063 0-.126-.01-.188-.029-.345-.103-.538-.466-.434-.81.1-.331.184-.684.257-1.045-.51.167-1.021.336-1.531.512-.115.68-.259 1.35-.442 1.959-.059.193-.202.335-.377.407 2.771-.997 5.58-1.887 8.213-2.528-.082-.233-.074-.484.021-.707M90.582 59.509c-.41.07-.826.15-1.247.236-.058.34-.132.687-.224 1.026.23.049.443.176.59.38l.325.447c.447-.089.886-.166 1.318-.235-.314-.585-.564-1.21-.762-1.854M79.35 64.603c-.342-.104-.537-.466-.433-.81.103-.343.192-.71.27-1.086-.515.184-1.026.372-1.537.563-.12.68-.266 1.344-.448 1.947-.085.281-.343.463-.623.463-.06 0-.125-.009-.187-.028-.344-.103-.539-.466-.435-.81.098-.326.185-.672.263-1.029-.516.2-1.028.4-1.535.603-.123.648-.27 1.274-.442 1.85-.086.282-.344.464-.623.464-.062 0-.125-.01-.187-.028-.344-.104-.54-.466-.436-.81.085-.282.161-.582.233-.888-.523.215-1.034.429-1.537.642-.12.583-.254 1.147-.41 1.67-.085.28-.343.463-.623.463-.062 0-.125-.01-.187-.028-.344-.103-.539-.466-.436-.81.064-.213.124-.436.182-.664-.524.228-1.039.453-1.534.673-.109.491-.229.967-.363 1.414-.084.282-.342.464-.622.464-.062 0-.125-.01-.187-.028-.344-.103-.539-.466-.436-.809.035-.117.067-.241.1-.363-1.04.474-1.99.916-2.823 1.312-.805 1.924-1.84 3.19-3.045 3.559-.111.034-.267.063-.439.083.066.014.133.027.2.027.15 0 .303-.034.446-.107.128-.066 8.922-4.554 18.195-7.899-.056.015-.113.028-.172.028-.063 0-.125-.01-.188-.028" transform="translate(-579 -88) translate(579 88)"/>
                <path fill="#11A0C0" d="M64.354 68.94c-2.142 1.016-3.528 1.723-3.728 1.827-.48.246-.67.834-.424 1.313.14.271.392.444.669.503.171-.021.327-.05.438-.083 1.205-.37 2.24-1.637 3.045-3.56M60.32 54.921c0 .01.007.017.008.027-.003-.022-.008-.044-.01-.067l.001.04M61.115 53.846c.506-.092.996.222 1.12.725.045.189.133.562.24 1.067l1.71-.211c-.018-.667-.045-1.318-.078-1.955l-2.94.362c-.018.002-.035.009-.052.012" transform="translate(-579 -88) translate(579 88)"/>
                <path fill="#11A0C0" d="M65.238 55.297c.534-.066.913-.553.848-1.087-.067-.535-.555-.916-1.087-.849l-.892.11c.033.638.06 1.29.078 1.955l1.053-.129zM61.115 53.846c-.035.007-.068.014-.1.023-.032.01-.062.02-.093.033-.03.012-.06.025-.088.039-.027.015-.053.03-.08.048-.027.018-.053.036-.079.057-.023.018-.044.039-.065.06-.024.023-.047.045-.068.07-.019.024-.036.048-.054.073-.018.026-.036.052-.05.08-.015.027-.028.055-.04.083-.014.03-.026.058-.035.088-.01.03-.017.059-.024.09-.007.03-.014.063-.018.096-.003.03-.004.06-.005.09 0 .035 0 .07.002.105.002.023.006.045.01.067.073.48.482.83.958.83.04 0 .08-.003.12-.009l1.069-.13c-.107-.506-.195-.88-.24-1.068-.124-.503-.614-.817-1.12-.725M61.81 40.975c-.013-.039-.03-.075-.043-.113-.074-.15-.146-.293-.22-.42l-2.249-.286-.082.095c-.242.286-.466.67-.676 1.12l3.636.46c-.083-.227-.17-.437-.256-.635-.043-.07-.086-.14-.11-.221" transform="translate(-579 -88) translate(579 88)"/>
                <path fill="#11A0C0" d="M61.767 40.862c-.047-.139-.099-.276-.155-.413l-.065-.008c.073.128.147.271.22.42M57.636 40.602c-.045.356.206.68.562.726l.342.043c.21-.45.435-.834.676-1.12l.082-.095-.936-.118c-.356-.043-.68.207-.726.564M62.74 41.658c-.335 0-.642-.178-.82-.462.087.198.172.408.257.635l.48.06c.029.005.056.006.083.006.283 0 .522-.188.609-.455-.092.074-.198.134-.317.171-.097.031-.196.045-.292.045M61.92 41.196c-.051-.117-.102-.228-.153-.334.012.038.03.075.042.113.025.081.068.152.111.22" transform="translate(-579 -88) translate(579 88)"/>
                <path fill="#11A0C0" d="M62.822 40.603l-1.21-.154c.057.137.109.275.155.413.051.106.102.217.153.334.178.284.485.462.82.462.096 0 .195-.014.292-.045.12-.037.225-.097.317-.17.012-.04.03-.073.036-.114.045-.356-.207-.681-.563-.726M62.06 42.583l-3.822-.485c-.144.385-.279.805-.405 1.26l4.064.514c.028.004.055.006.082.006.323 0 .603-.24.644-.57.006-.04-.006-.077-.008-.117-.006-.105-.034-.2-.084-.287-.1-.168-.263-.295-.47-.321" transform="translate(-579 -88) translate(579 88)"/>
                <path fill="#11A0C0" d="M57.239 42.627c-.045.356.207.682.563.727l.031.004c.126-.455.261-.875.405-1.26l-.272-.034c-.359-.043-.682.207-.727.563M57.406 45.38l3.022.382c.028.004.056.006.083.006.322 0 .602-.24.645-.569.044-.356-.208-.681-.564-.727l-2.95-.374c-.097.403-.187.83-.271 1.27.012.002.022.01.035.011" transform="translate(-579 -88) translate(579 88)"/>
                <path fill="#11A0C0" d="M57.641 44.099l-.071-.01c-.356-.043-.681.208-.728.565-.003.03.006.06.007.09.21.135.363.344.422.59.033.013.064.027.1.034.084-.441.174-.866.27-1.27" transform="translate(-579 -88) translate(579 88)"/>
                <path fill="#11A0C0" d="M56.85 44.745c.004.27.17.499.421.59-.06-.247-.212-.456-.422-.59M59.754 47.747c.323 0 .602-.239.644-.568.045-.356-.207-.681-.563-.726l-2.6-.33c-.07.417-.136.845-.197 1.286l2.633.333c.028.004.055.005.083.005" transform="translate(-579 -88) translate(579 88)"/>
                <path fill="#11A0C0" d="M57.173 46.116c-.022-.003-.042.005-.064.004-.144.201-.355.338-.604.385-.024.056-.051.11-.059.174-.045.356.207.68.563.726l.03.004c.06-.44.125-.87.196-1.285l-.062-.008z" transform="translate(-579 -88) translate(579 88)"/>
                <path fill="#11A0C0" d="M56.505 46.505c.249-.047.46-.183.605-.385-.268-.006-.5.147-.605.385M58.935 49.72c.322 0 .603-.24.644-.568.046-.356-.207-.682-.563-.727l-2.074-.262c-.052.423-.099.854-.14 1.292l2.05.26c.028.004.056.005.083.005" transform="translate(-579 -88) translate(579 88)"/>
                <path fill="#11A0C0" d="M56.776 48.141c-.356-.04-.681.208-.727.564-.044.356.207.681.563.726l.19.024c.042-.438.089-.87.14-1.293l-.166-.02zM58.423 51.731c.322 0 .602-.24.644-.568.045-.356-.207-.681-.563-.726l-1.77-.225c-.036.428-.068.861-.094 1.299l1.7.215c.028.004.055.005.083.005" transform="translate(-579 -88) translate(579 88)"/>
                <path fill="#11A0C0" d="M56.38 50.168c-.358-.041-.682.206-.727.562-.045.357.206.682.563.727l.423.053c.027-.436.059-.87.095-1.298l-.355-.044zM57.884 53.74c.323 0 .603-.24.645-.569.045-.356-.207-.682-.563-.726l-1.37-.175c-.023.433-.04.868-.053 1.305l1.259.16c.028.003.055.004.082.004" transform="translate(-579 -88) translate(579 88)"/>
                <path fill="#11A0C0" d="M55.983 52.193c-.356-.042-.682.207-.727.563-.045.356.207.682.563.727l.723.092c.015-.437.032-.872.053-1.305l-.612-.077zM57.092 55.715c.323 0 .602-.24.644-.568.045-.357-.207-.682-.563-.727l-.653-.083c-.009.437-.012.873-.013 1.31l.502.063c.028.003.055.005.083.005" transform="translate(-579 -88) translate(579 88)"/>
                <path fill="#11A0C0" d="M55.586 54.22c-.358-.045-.681.206-.727.562-.045.356.207.681.563.727l1.084.137c.002-.436.006-.872.014-1.308l-.934-.119zM89.562 57.208c0-.36-.29-.65-.65-.65-.36 0-.65.29-.65.65 0 .016-.006 1.473-.312 2.843.467-.109.93-.212 1.385-.306.223-1.299.227-2.472.227-2.537" transform="translate(-579 -88) translate(579 88)"/>
                <path fill="#11A0C0" d="M87.95 60.051c-.044.202-.095.4-.153.593-.08.264.017.536.221.697.067-.158.174-.3.323-.409.231-.167.511-.215.77-.161.092-.339.166-.686.224-1.026-.455.094-.918.197-1.384.306M86.717 57.153s0-.595-.614-.595c-.615 0-.686.58-.686.58-.003.38-.037 2.093-.36 3.668.466-.132.93-.26 1.389-.38.24-1.494.268-2.928.271-3.288v.015z" transform="translate(-579 -88) translate(579 88)"/>
                <path fill="#11A0C0" d="M84.837 61.694c-.104.343.09.706.433.81.063.019.126.028.189.028.28 0 .537-.18.622-.461.158-.522.275-1.088.365-1.645-.46.12-.923.248-1.39.38-.061.305-.134.604-.22.888M83.872 57.072l.001-.011v.007c.003-.02.081-.51-.614-.51-.71 0-.687.515-.687.515-.006.684-.06 2.772-.438 4.625.468-.152.935-.3 1.4-.442.286-1.76.332-3.532.338-4.188v.004z" transform="translate(-579 -88) translate(579 88)"/>
                <path fill="#11A0C0" d="M83.872 57.072v-.004l.001-.007v.01zM81.877 62.744c-.104.343.09.706.434.81.062.018.125.028.188.028.28 0 .537-.181.622-.462.177-.584.31-1.223.414-1.864-.466.143-.933.29-1.4.442-.074.361-.159.714-.258 1.046M81.027 56.987s.001-.43-.591-.516c-.592-.087-.709.53-.709.53-.008.851-.074 3.48-.54 5.706.471-.17.943-.336 1.416-.497.36-2.152.417-4.416.425-5.23v.007z" transform="translate(-579 -88) translate(579 88)"/>
                <path fill="#11A0C0" d="M80.16 64.169c.184-.61.328-1.279.443-1.96-.473.162-.945.329-1.415.498-.079.376-.168.743-.271 1.086-.104.344.09.706.434.81.063.019.125.028.188.028.059 0 .116-.013.172-.028l.074-.027c.173-.071.317-.213.376-.407M77.557 56.234c-.35-.014-.66.266-.673.627l-.001.079c-.011 1.03-.092 4.272-.663 6.873.474-.183.95-.364 1.43-.543.452-2.55.523-5.368.534-6.368.01-.357-.27-.655-.627-.668" transform="translate(-579 -88) translate(579 88)"/>
                <path fill="#11A0C0" d="M75.957 64.843c-.103.343.092.706.435.81.063.018.126.027.188.027.28 0 .537-.182.622-.463.182-.603.328-1.266.448-1.947-.48.178-.956.36-1.43.543-.078.358-.166.703-.263 1.03M75.339 56.824c.013-.357-.266-.657-.623-.671-.363-.012-.662.264-.676.623l-.002.11c-.018 1.565-.137 5.259-.808 8.119.478-.197.964-.394 1.455-.59.536-2.821.637-6.061.653-7.515v-.076z" transform="translate(-579 -88) translate(579 88)"/>
                <path fill="#11A0C0" d="M72.997 65.892c-.103.344.092.706.435.81.063.018.126.028.188.028.28 0 .537-.182.622-.464.174-.577.32-1.202.443-1.85-.49.195-.977.392-1.455.589-.072.305-.148.604-.233.887M72.494 56.743c.012-.358-.268-.658-.626-.671-.357-.014-.66.266-.673.625l-.002.12c-.02 1.829-.157 6.23-.974 9.46.48-.208.972-.419 1.474-.63.66-3.229.781-7.111.8-8.816v-.088z" transform="translate(-579 -88) translate(579 88)"/>
                <path fill="#11A0C0" d="M70.037 66.941c-.103.344.092.707.436.81.063.018.125.028.187.028.28 0 .538-.182.622-.463.157-.524.292-1.087.41-1.67-.501.212-.992.423-1.473.632-.058.226-.118.45-.182.663M69.65 56.662c.012-.358-.267-.658-.625-.672-.357-.015-.662.267-.675.626l-.002.14c-.024 2.113-.188 7.294-1.171 10.873.486-.221.985-.446 1.508-.679.8-3.622.94-8.208.963-10.18l.001-.108z" transform="translate(-579 -88) translate(579 88)"/>
                <path fill="#11A0C0" d="M67.077 67.991c-.103.343.092.706.436.81.063.018.125.027.187.027.28 0 .538-.182.622-.464.134-.447.255-.923.363-1.414-.523.233-1.022.458-1.508.678-.033.122-.065.245-.1.363" transform="translate(-579 -88) translate(579 88)"/>
                <path fill="#231F20" d="M95.154 73.323l-.073-4.7c-.004-.22-.081-.432-.22-.601-1.383-1.694-3.938-5.19-4.835-6.424-.662.13-1.339.283-2.03.45.031.085.07.169.126.245.136.19 3.241 4.486 5.014 6.697l.057 3.668c.13.037.255.092.362.183.029.021.561.418 1.599.482" transform="translate(-579 -88) translate(579 88)"/>
                <path fill="#231F20" d="M89.702 61.151c-.148-.204-.362-.332-.59-.38-.023.085-.046.169-.072.252-.085.28-.343.46-.622.46-.061 0-.126-.008-.189-.028-.08-.024-.15-.066-.211-.114-.094.223-.103.474-.02.707.689-.168 1.366-.32 2.028-.45l-.324-.447" transform="translate(-579 -88) translate(579 88)"/>
                <path fill="#231F20" d="M88.341 60.932c-.149.108-.256.251-.323.41.062.047.131.089.211.113.063.02.127.029.19.029.278 0 .536-.181.622-.461.024-.083.048-.167.07-.252-.259-.054-.54-.006-.77.161M91.855 54.121c.17.329.5.533.856.533.118 0 .237-.021.353-.066.502-.195.752-.759.557-1.261-.27-.7-.785-1.81-1.378-3.038.004.124-.015.25-.06.374-.12.39-.317 1.765-.328 3.458M90.359 49.972c.196-.502.762-.749 1.262-.555.106.041.199.102.28.172-.952-1.944-2.024-4.034-2.627-5.2-.275.041-.479.136-.598.209.214.252.298.604.185.942-.128.381-.47.631-.847.661.624 1.216 1.461 2.866 2.206 4.39.058-.325.11-.544.139-.619M86.978 43.83c-.002.015-.01.029-.011.043l.004.001c.001-.014.005-.029.007-.043" transform="translate(-579 -88) translate(579 88)"/>
                <path fill="#231F20" d="M88.014 46.201c.377-.03.718-.28.847-.662.113-.337.03-.689-.185-.941-.055.034-.094.062-.112.077-.415.333-1.026.28-1.367-.126-.164-.197-.236-.439-.226-.675h-.004c-.01.17.02.344.106.506.011.023.394.755.94 1.821M91.901 49.59c.117.235.23.47.341.699-.01-.27-.135-.523-.34-.7M93.502 61.151c-1.336-1.848-1.664-4.734-1.647-7.03-.017-.031-.04-.056-.052-.09-.292-.75-.898-2.042-1.583-3.44-.272 1.528-.688 5.5.362 8.918.404-.07.803-.133 1.195-.187.53-.076 1.025.298 1.1.832.073.533-.3 1.025-.833 1.099-.23.032-.466.072-.7.11.173.322.363.635.577.93 2.407 3.332 6.15 6.47 7.173 7.3.257-.303.74-.811 1.465-1.324-.044-.035-4.467-3.532-7.057-7.118" transform="translate(-579 -88) translate(579 88)"/>
                <path fill="#231F20" d="M92.876 60.154c-.074-.534-.57-.908-1.099-.832-.392.054-.79.117-1.195.187.198.645.448 1.269.762 1.853.234-.037.47-.077.7-.11.533-.073.906-.565.832-1.098M91.855 54.121c.011-1.693.208-3.068.328-3.458.045-.124.064-.25.06-.374-.112-.23-.225-.463-.342-.7-.082-.07-.173-.13-.28-.172-.5-.194-1.066.053-1.262.555-.03.075-.08.294-.14.618.686 1.4 1.293 2.692 1.584 3.441.012.033.035.059.052.09M87.296 43.194c-.005.004-.007.01-.011.014l.03-.03-.019.016M88.8 43.478c.033.06.208.397.475.911.63-.093 1.64.113 2.904 1.615 2.583 3.073 3.08 5.705 3.084 5.727.081.476.494.81.96.81.055 0 .11-.004.166-.013.53-.092.887-.596.796-1.127-.02-.119-.507-2.805-3.028-6.049-.247.094-.407.171-.412.175-.478.246-1.066.059-1.312-.42-.235-.457-.072-1.01.358-1.274-.946-.852-1.934-1.324-2.948-1.403-1.423-.112-2.344.594-2.518.74.05-.04.103-.075.16-.106.477-.248 1.066-.064 1.316.414" transform="translate(-579 -88) translate(579 88)"/>
                <path fill="#231F20" d="M88.247 44.305c.174.058.317.163.429.293.12-.073.323-.168.598-.209l-.473-.911c-.25-.478-.84-.662-1.316-.413-.057.03-.11.065-.16.105l-.01.008c-.011.009-.02.02-.03.03-.09.082-.164.177-.216.28l-.01.023c-.047.1-.07.21-.081.32l-.007.044 1.276.43" transform="translate(-579 -88) translate(579 88)"/>
                <path fill="#231F20" d="M86.978 43.83c.011-.11.034-.218.082-.318-.048.1-.073.209-.082.319M86.971 43.874c-.01.236.062.478.227.675.34.406.951.46 1.366.126.019-.015.056-.043.112-.077-.112-.13-.255-.235-.429-.293l-1.276-.43" transform="translate(-579 -88) translate(579 88)"/>
                <path fill="#11A0C0" d="M116.115 50.347c.073 0 .144-.009.213-.024-.123-.147-.21-.234-.23-.254-.385-.377-.39-.994-.014-1.378.108-.11.236-.181.37-.23-.105-.039-.22-.064-.339-.064-4.154 0-7.502-.67-9.302-1.028-.699-.14-1.105-.218-1.398-.214.529.64.995 1.374 1.468 2.215 1.863.368 5.23.977 9.232.977zM116.362 57.838c.085-.12.163-.24.238-.36-2.552-.229-5.878.377-7.637.761.01.254.018.499.018.72 0 .54-.437.976-.975.976-.45 0-.826-.307-.938-.722-.042.158-.05.328-.006.498.114.44.51.73.943.73.081 0 .165-.01.247-.032.023-.007 1.07-.277 2.506-.54.371-.756.664-1.312.692-1.364.25-.477.84-.658 1.317-.408.476.252.658.841.407 1.319l-.053.099c1.227-.138 2.492-.2 3.544-.074.17.02.334-.01.481-.07-.189-.002-.38-.057-.547-.174-.44-.31-.546-.918-.237-1.359" transform="translate(-579 -88) translate(579 88)"/>
                <path fill="#11A0C0" d="M117.09 49.372c0 .466-.327.853-.763.95.692.827 2.547 3.576.273 7.157.098.008.2.014.296.026.534.063.916.548.853 1.083-.044.365-.286.654-.603.784l.013.002c.307 0 .61-.145.799-.415 3.225-4.59 1.087-8.734-.495-10.283-.276-.27-.668-.335-1.008-.214.37.139.635.492.635.91" transform="translate(-579 -88) translate(579 88)"/>
                <path fill="#11A0C0" d="M116.098 50.07c.02.019.107.106.23.253.434-.098.761-.485.761-.95 0-.419-.264-.773-.634-.911-.135.048-.263.119-.37.228-.378.385-.372 1.002.013 1.38M117.749 58.588c.064-.535-.318-1.02-.853-1.083-.096-.012-.197-.017-.296-.026-.075.12-.153.238-.238.36-.309.44-.203 1.048.237 1.358.167.116.358.172.547.175.318-.13.56-.419.603-.784" transform="translate(-579 -88) translate(579 88)"/>
                <path fill="#231F20" d="M93.672 44.75c.17.203.33.403.485.602.68-.256 2.05-.634 2.916.066 1.221.988 2.422 3.836 2.782 4.849.142.4.518.649.92.649.107 0 .218-.018.325-.056.508-.18.773-.737.594-1.244-.087-.242-.569-1.566-1.31-2.942-.347.09-.583.211-.588.214-.466.267-1.063.105-1.331-.363-.267-.467-.105-1.063.363-1.33.024-.014.2-.11.48-.22l-.075-.095c-.484.142-.808.229-.858.242-.522.137-1.055-.172-1.192-.693-.102-.383.041-.773.33-1.007-2.073-.931-4.543.311-4.66.371-.023.012-.041.027-.062.04.298.269.592.573.88.917" transform="translate(-579 -88) translate(579 88)"/>
                <path fill="#231F20" d="M92.433 45.107c.246.479.834.666 1.313.42.004-.003.164-.081.411-.175-.154-.199-.315-.4-.485-.602-.29-.344-.583-.648-.881-.917-.43.265-.594.817-.358 1.274M99.232 44.88c1.323-.389 3.885-1.205 5.678-2.182.144.732.025 1.73-1.238 2.515-.087.054-.157.121-.22.195.581.38 1.085.796 1.531 1.264 2.787-1.962 1.852-4.928 1.227-5.938-.145-.234-.383-.396-.654-.445-.27-.051-.55.017-.769.186-1.517 1.167-5.503 2.39-6.911 2.762-.138.036-.259.102-.363.186.27.121.536.276.787.479.327.265.64.603.932.978" transform="translate(-579 -88) translate(579 88)"/>
                <path fill="#231F20" d="M97.183 44.43c.138.52.67.829 1.192.692.05-.013.374-.1.857-.242-.293-.375-.604-.713-.932-.979-.251-.202-.516-.356-.787-.479-.29.235-.432.624-.33 1.007M104.187 47.016c-.325 0-.644-.163-.828-.46-.231-.37-.178-.834.093-1.149-.103-.067-.2-.137-.307-.201-1.528-.916-3.077-.527-3.837-.231.398.523.76 1.115 1.075 1.7.462-.119 1.127-.176 1.759.202 1.479.888 2.3 2.06 3.3 3.912.95 1.761 1.588 5.647 1.588 8.17 0 .09.015.174.038.255.088-.327.34-.6.691-.692.062-.016.517-.133 1.205-.283-.097-2.462-.667-6.265-1.807-8.376-.091-.171-.182-.33-.274-.493l-.452-.09c-.341-.068-.692-.138-.878-.166-.086.015-.177.02-.268.01-.535-.053-.927-.53-.874-1.066.027-.274.177-.538.398-.702.188-.139.359-.198.606-.202-.139-.167-.284-.326-.432-.482-.094.066-.18.134-.281.197-.16.1-.338.147-.515.147" transform="translate(-579 -88) translate(579 88)"/>
                <path fill="#231F20" d="M104.41 48.058c-.052.536.34 1.014.876 1.066.09.01.18.005.267-.01.186.028.537.098.878.167l.452.09c-.473-.842-.94-1.577-1.469-2.217-.247.003-.417.063-.605.202-.22.164-.37.428-.398.702M108.005 59.935c.539 0 .975-.436.975-.975 0-.223-.007-.467-.016-.72-.688.149-1.143.266-1.205.282-.352.092-.603.365-.69.692.11.414.487.72.936.72M98.828 45.195c-.468.267-.63.862-.363 1.33.268.468.865.63 1.33.362.005-.002.241-.124.589-.213-.316-.584-.677-1.176-1.076-1.699-.28.11-.456.206-.48.22M103.358 46.556c.185.297.503.46.83.46.175 0 .353-.047.513-.147.102-.063.188-.131.282-.197-.446-.468-.95-.884-1.531-1.265-.271.315-.324.778-.094 1.15M109.274 63.283c-.505 1.514-.705 3.115-.76 3.629.594.13 1.216.304 1.87.536.02-.065.049-.127.055-.197.002-.018.159-1.772.685-3.352.482-1.443 1.734-3.877 1.997-4.384-.833.094-1.646.222-2.363.354-.501 1.019-1.146 2.402-1.484 3.414" transform="translate(-579 -88) translate(579 88)"/>
                <path fill="#231F20" d="M112.767 58.098c-.476-.251-1.067-.07-1.317.407-.028.052-.321.608-.692 1.365.717-.133 1.53-.261 2.363-.355.03-.058.05-.097.053-.1.251-.476.069-1.066-.407-1.317" transform="translate(-579 -88) translate(579 88)"/>
                <path fill="#11A0C0" d="M109.47 68.14c-.03 0-.058 0-.087-.002-.536-.047-.933-.52-.886-1.056 0-.012.006-.075.016-.17-3.8-.828-6.417.268-7.954 1.357.423.333.497.946.163 1.369-.192.245-.478.372-.767.372-.21 0-.423-.068-.602-.208-.024-.02-.114-.09-.26-.209-.142.168-.216.274-.221.282-.118.176-.176.385-.165.596l.115 2.185c.264.08.493.265.613.536.217.493-.008 1.069-.5 1.286-.006.002-.011.003-.016.006l.04.755c.47-.52 1.081-1.076 1.869-1.587l-.155-2.918c.725-.83 3.618-3.506 9.355-1.342l.49 2.673c.654.096 1.338.224 2.054.388l-.723-3.945c-.06-.325-.28-.598-.586-.725-.3-.124-.592-.234-.88-.335-.123.402-.483.693-.914.693" transform="translate(-579 -88) translate(579 88)"/>
                <path fill="#11A0C0" d="M99.093 69.593c.146.119.236.19.26.208.18.14.392.209.602.209.29 0 .575-.128.767-.373.334-.422.26-1.035-.163-1.368-.725.513-1.208 1.02-1.466 1.324M108.497 67.082c-.047.536.35 1.009.886 1.056l.086.003c.43 0 .79-.29.914-.694-.653-.231-1.275-.405-1.87-.535-.01.095-.016.157-.016.17M92.361 79.303c.025-.018.053-.033.08-.049.027-.016.054-.031.083-.045.029-.013.06-.023.09-.032.03-.01.06-.022.09-.028.033-.008.067-.012.1-.016.024-.003.047-.01.072-.01h.025l.024-.002h1.29l-.227-4.014c1.122.277 2.781.318 4.93-.623l-.096-1.828c-.214-.065-.451-.06-.673.037-1.26.554-2.255.676-2.995.63l.01.678c.009.538-.42.982-.959.99h-.015c-.532 0-.967-.426-.975-.96l-.022-1.374c-.23-.066-.48-.057-.703.055-.349.174-.56.54-.538.928l.323 5.733c.005-.003.01-.006.013-.01.024-.02.047-.042.073-.06" transform="translate(-579 -88) translate(579 88)"/>
                <path fill="#11A0C0" d="M94.19 74.991h.015c.539-.009.968-.451.96-.99l-.011-.678c-1.038-.064-1.57-.46-1.6-.483-.106-.09-.231-.145-.36-.183l.02 1.374c.01.534.444.96.976.96M99.434 73.192c-.12-.27-.348-.457-.611-.536l.096 1.827.015-.005c.493-.217.717-.793.5-1.286" transform="translate(-579 -88) translate(579 88)"/>
                <path fill="#231F20" d="M112.154 73.694c-.097.059-.204.103-.322.125-.527.095-1.038-.253-1.135-.784l-.179-.97c-4.635-.674-7.713.304-9.69 1.588l.102 1.923c.013.24-.067.464-.205.642 1.616-1.558 5.009-3.372 11.546-1.835l-.112-.625c-.004-.022-.003-.043-.005-.064M112.62 72.75c.098-.059.207-.103.327-.124.129-.025.257-.021.38.006-.258-.065-.505-.122-.754-.18l.042.232c.004.022.003.044.005.066M113.363 72.641l-.026-.006c.03.007.06.02.089.03-.022-.008-.041-.018-.063-.024" transform="translate(-579 -88) translate(579 88)"/>
                <path fill="#231F20" d="M137.09 102.73c.391-.37 1.008-.354 1.378.036.369.39.355 1.003-.03 1.373-.006.005-.03.03-.062.068 8.022-7.686 15.142-15.087 15.671-15.637.373-.389.36-1.006-.028-1.379-.388-.372-1.005-.36-1.379.028-.233.243-23.429 24.358-33.642 31.145-2.199 1.46-4.367 1.752-6.449.868-3.715-1.58-6.986-6.898-8.14-13.231-.677-3.718-1.328-8.145-1.959-12.426-.988-6.71-1.923-13.066-2.853-15.93.161-.286.46-.739.935-1.233-.148.109-.328.178-.525.189h-.052c-.514 0-.945-.403-.973-.923l-.023-.44c-.905 1.003-1.277 1.864-1.319 1.968-.094.227-.097.48-.012.709.122.328.245.737.368 1.206h.13c.538 0 .975.436.975.975 0 .43-.28.79-.666.92.666 3.205 1.362 7.924 2.086 12.843.632 4.297 1.286 8.74 1.97 12.49.95 5.219 3.193 9.72 6.057 12.468.349-.2.701-.419 1.059-.673.438-.313 1.045-.21 1.36.228.311.439.21 1.048-.23 1.36-.196.14-.392.267-.586.394.53.36 1.077.663 1.635.9 1.026.436 2.079.653 3.14.653 1.717 0 3.458-.567 5.15-1.692 3.777-2.51 9.17-7.214 14.55-12.233.86-3.441 2.366-4.932 2.464-5.025" transform="translate(-579 -88) translate(579 88)"/>
                <path fill="#231F20" d="M100.828 73.653c-.788.51-1.4 1.066-1.87 1.586l.024.439c.028.52.459.924.973.924l.052-.002c.197-.01.377-.08.525-.188.074-.055.138-.121.194-.194.137-.178.217-.402.204-.643l-.102-1.922zM110.697 73.036c.097.53.608.878 1.135.783.117-.022.225-.066.322-.124-.044-.388.145-.754.466-.945-.002-.023-.001-.044-.005-.066l-.042-.23c-.717-.165-1.401-.294-2.054-.389l.178.97zM118.291 103.386l-.008-.002.008.002M117.524 101.81l1.342-1.72-.687-3.83-.538.353c-.165.109-.35.16-.535.16-.317 0-.628-.154-.815-.44-.074-.11-.121-.232-.144-.355l1.186 6.604c.001.01.008.017.01.027-.057-.271-.002-.564.181-.799M118.465 103.37c.007 0 .014-.005.022-.006-.063.013-.128.02-.193.021.056 0 .113-.004.17-.015M114.062 73.83c-.135.522-.67.832-1.188.7-.206-.054-.403-.1-.604-.147l3.876 21.587c-.067-.372.088-.766.424-.987l1.235-.81-3.727-20.76c-.003-.022-.012-.04-.017-.061.038.152.043.315.001.478" transform="translate(-579 -88) translate(579 88)"/>
                <path fill="#231F20" d="M112.947 72.626c-.12.02-.229.066-.327.124.044.388-.145.753-.466.945.002.02 0 .041.005.062l.112.626c.2.046.397.093.603.146.518.133 1.053-.178 1.189-.699.041-.163.035-.326-.002-.478-.01-.037-.019-.076-.032-.112-.01-.026-.024-.05-.036-.076-.015-.032-.03-.064-.049-.093-.013-.024-.03-.044-.047-.066-.022-.03-.044-.059-.07-.086-.015-.017-.034-.033-.052-.05-.029-.025-.057-.051-.088-.074-.022-.015-.044-.027-.066-.04-.032-.019-.062-.038-.094-.053-.033-.015-.067-.026-.101-.037-.03-.01-.059-.023-.089-.03l-.01-.002c-.123-.028-.251-.032-.38-.007" transform="translate(-579 -88) translate(579 88)"/>
                <path fill="#231F20" d="M112.62 72.75c-.32.192-.51.556-.466.944.32-.191.51-.556.466-.944M102.803 119.448c-3.823-1.699-6.523-8.095-7.122-13.25-.693-5.957-1.515-21.067-1.73-25.127h-1.025c-.53 0-.96-.424-.973-.95 0 .008-.002.015-.001.024.009.193.985 19.34 1.791 26.278.55 4.72 3.204 12.557 8.268 14.806.955.426 1.939.637 2.947.637 1.668 0 3.404-.585 5.193-1.74-.553-.374-1.087-.815-1.603-1.31-2.076 1.187-4.004 1.404-5.745.632M92.876 79.122c-.025.002-.048.008-.072.011.032-.004.063-.009.097-.01h-.025" transform="translate(-579 -88) translate(579 88)"/>
                <path fill="#231F20" d="M110.966 118.372c-.313-.439-.922-.54-1.36-.228-.357.254-.71.474-1.058.673.516.493 1.05.935 1.602 1.309.195-.127.39-.254.587-.394.439-.312.541-.92.23-1.36M92.275 79.374l-.055.051c.017-.017.037-.034.056-.05v-.001zM94.267 80.04c.017.31-.114.59-.328.78l.013.251h4.174c.108 0 .212-.022.31-.055-.148-.71-.295-1.349-.44-1.895h-3.78l.051.92zM91.95 80.096c0 .009.002.016.003.024-.001-.033.002-.064.005-.096-.002.024-.008.047-.008.072" transform="translate(-579 -88) translate(579 88)"/>
                <path fill="#231F20" d="M93.9 80.047c0 .022.014.302.04.774.213-.191.345-.472.327-.78l-.052-.92h-1.29l-.024.002c.545-.014.97.394.998.924M92.288 79.363l-.013.011c.005-.003.01-.007.013-.011M99.1 80.096c0-.539-.436-.975-.975-.975h-.128c.144.546.29 1.184.438 1.895.385-.13.665-.49.665-.92M93.349 81.07l-.056.001h.659c-.005-.09-.01-.172-.013-.25-.159.142-.361.235-.59.248M92.925 81.071h.368c-.514 0-.944-.401-.973-.92l-.044-.776c-.019.016-.039.032-.056.05-.021.023-.04.048-.06.072-.019.025-.038.049-.055.075-.017.026-.031.055-.045.083-.015.028-.029.055-.04.084-.012.03-.02.062-.029.093-.009.03-.018.06-.024.09-.005.034-.007.067-.01.102-.002.032-.005.063-.004.096.012.527.443.951.972.951" transform="translate(-579 -88) translate(579 88)"/>
                <path fill="#231F20" d="M93.94 80.821l-.041-.774c-.027-.53-.453-.938-.999-.924-.032.001-.063.005-.096.01-.034.004-.067.008-.1.016-.03.006-.06.017-.09.028-.03.01-.061.019-.09.033-.03.013-.056.028-.084.044-.026.016-.054.031-.08.049-.025.018-.048.04-.072.06l-.012.011.044.777c.03.52.46.92.973.92.018 0 .037 0 .056-.002.228-.013.432-.106.59-.248M131.898 25.957c-3.12-1.366-5.645.706-5.751.796-.413.345-.467.96-.122 1.373.193.23.47.348.748.348.221 0 .444-.074.626-.227.017-.013 1.697-1.387 3.717-.504.496.217 1.069-.01 1.284-.502.216-.494-.009-1.068-.502-1.284M128.194 30.138c-.704 0-1.274.952-1.274 2.128 0 1.176.57 2.13 1.274 2.13.704 0 1.275-.954 1.275-2.13s-.57-2.128-1.275-2.128M37.835 88.016c-.303-.195-.704-.108-.9.194l-.954 1.477c-.194.301-.109.703.193.898.11.071.232.104.352.104.213 0 .423-.104.547-.297l.955-1.477c.195-.302.108-.704-.193-.899M35.364 91.841c-.303-.195-.704-.108-.9.193l-.67 1.04c-.196.3-.11.704.192.898.11.07.232.104.353.104.213 0 .421-.105.546-.297l.672-1.039c.195-.301.108-.704-.193-.899M33.246 95.119c-.302-.195-.704-.109-.899.193l-3.514 5.44c-.195.3-.109.703.193.898.109.07.231.104.352.104.213 0 .422-.104.547-.297l3.514-5.439c.195-.302.109-.704-.193-.899M26.396 76.275l-1.599 1.223c-.284.218-.34.626-.121.91.128.168.321.256.516.256.138 0 .277-.043.395-.133l1.599-1.223c.285-.217.34-.626.122-.911-.219-.285-.626-.34-.912-.122M23.257 78.675l-.755.577c-.285.218-.34.626-.122.911.129.167.322.256.517.256.138 0 .276-.044.395-.134l.755-.577c.285-.219.34-.626.122-.912-.219-.284-.626-.339-.912-.121M21.021 80.384l-6.446 4.927c-.285.218-.34.626-.122.91.129.169.322.256.517.256.138 0 .276-.043.395-.134l6.446-4.926c.285-.218.34-.626.121-.911-.218-.285-.626-.34-.91-.122M11.64 87.554L10.272 88.6c-.286.218-.34.626-.122.912.127.167.321.255.517.255.138 0 .276-.044.394-.134l1.369-1.046c.284-.218.339-.626.12-.911-.217-.285-.624-.34-.91-.122M20.029 63.066c-.35.083-.565.433-.482.783.071.299.338.5.631.5.051 0 .101-.006.152-.019l.567-.135c.349-.083.565-.433.481-.782-.083-.35-.433-.564-.782-.482l-.567.135zM10.543 65.995c.07.299.338.5.632.5.05 0 .1-.006.15-.018l6.755-1.61c.35-.083.565-.434.481-.783-.083-.35-.438-.562-.782-.481l-6.754 1.61c-.35.083-.565.433-.482.782M7.377 66.082l-2.915.695c-.35.083-.565.434-.482.783.071.299.338.5.632.5.05 0 .1-.006.151-.018l2.915-.695c.35-.084.565-.435.482-.784-.083-.349-.439-.563-.783-.48M17.628 49.08c.049.012.098.017.148.017.295 0 .562-.202.632-.502.082-.35-.136-.7-.486-.78L17 47.6c-.347-.082-.698.136-.78.486-.082.35.136.698.486.78l.922.215zM6.538 46.501l6.92 1.61c.049.01.098.016.147.016.295 0 .562-.202.632-.502.082-.35-.135-.7-.485-.781l-6.92-1.61c-.349-.08-.698.137-.78.487-.08.35.137.699.486.78M4.817 45.78c.295 0 .563-.203.633-.503.081-.35-.136-.7-.486-.78l-4.167-.97c-.348-.08-.699.136-.78.486-.081.35.136.7.486.78l4.166.97c.05.011.1.016.148.016M27.4 35.598c-.286-.217-.694-.16-.91.127-.217.286-.16.694.127.91l.7.53c.117.088.254.13.39.13.197 0 .392-.088.52-.257.216-.287.16-.695-.127-.911l-.7-.53zM24.83 35.285c.117.088.254.131.39.131.197 0 .392-.089.52-.258.216-.287.16-.694-.127-.91l-2.487-1.88c-.286-.216-.694-.16-.91.126-.216.286-.16.695.127.911l2.487 1.88zM19.815 31.495c.117.089.255.132.391.132.197 0 .392-.09.519-.258.216-.287.16-.695-.127-.912l-6.035-4.56c-.286-.216-.694-.159-.91.127-.216.286-.16.694.127.91l6.035 4.56zM36.558 22.895c.3-.196.384-.6.187-.9l-.49-.75c-.197-.3-.6-.384-.9-.188-.3.197-.385.6-.188.9l.49.75c.126.191.333.294.545.294.122 0 .246-.034.356-.106M34.169 19.892c.121 0 .246-.035.355-.106.3-.197.385-.6.188-.9l-4.597-7.03c-.196-.301-.6-.386-.9-.19-.3.197-.385.6-.188.9l4.597 7.032c.125.19.333.294.545.294M27.07 7.198c-.197-.3-.6-.384-.9-.188-.3.196-.385.6-.188.9l1.441 2.204c.124.19.333.294.545.294.122 0 .246-.034.355-.106.3-.196.385-.599.188-.899L27.07 7.198z" transform="translate(-579 -88) translate(579 88)"/>
                <path fill="#231F20" d="M123.585 41.174c.34.046.614.264.75.555.056-.12.09-.254.093-.396.01-.538-.42-.982-.96-.99-2.088-.034-2.693-.818-2.869-1.261 2.133-2.485 4.465-6.571 4.568-6.752.091-.16.136-.343.126-.527l-.216-4.721c-.171-3.714 2.16-8.833 2.91-10.376-.034-.063-.071-.133-.107-.193.083.471-.193.945-.663 1.094-.515.164-1.062-.118-1.226-.632-.042-.132-.077-.253-.113-.376-.14.304-.297.655-.462 1.043.386.4.739.73.997.95.41.348.46.963.112 1.373-.348.412-.963.461-1.373.114-.08-.068-.27-.233-.518-.466-.837 2.29-1.616 5.13-1.504 7.558l.202 4.436c-.561.963-2.71 4.57-4.499 6.528-.164.18-.255.414-.255.658 0 1.074.846 3.027 3.88 3.424l.03-.209c.072-.534.566-.907 1.097-.834" transform="translate(-579 -88) translate(579 88)"/>
                <path fill="#231F20" d="M130.988 43.787c.522-.129 1.048.18 1.182.7.003.014.016.066.03.135l.065-.051c.408-.348.455-.957.11-1.367-.343-.41-.958-.462-1.37-.122-.01.008-.955.777-2.868 1.273-1.182.307-2.885-.016-3.96-.31l.243-1.774c.026-.192-.008-.379-.084-.543-.157.334-.493.565-.883.565h-.016c-.352-.006-.672-.036-.978-.076l-.324 2.382c-.062.455.202.892.634 1.048.11.04 2.187.78 4.25.78.55 0 1.098-.052 1.607-.184.685-.178 1.257-.385 1.745-.593-.026-.403-.088-.674-.09-.682-.13-.52.187-1.05.707-1.181" transform="translate(-579 -88) translate(579 88)"/>
                <path fill="#231F20" d="M123.453 42.293c.39 0 .726-.231.882-.565-.136-.29-.41-.508-.75-.555-.532-.072-1.026.301-1.098.836l-.028.208c.305.04.626.07.979.076h.015zM128.674 52.234c.172-.085.357-.112.534-.093-.01 0-.018-.004-.029-.005-.39-.03-.848-.136-1.128-.247.175-.127.438-.281.648-.405.563-.333 1.263-.747 1.969-1.397 2.122-1.955 1.668-4.82 1.532-5.465-.187.15-.787.585-1.83 1.028.051.79-.041 2.098-1.024 3.003-.552.51-1.13.851-1.638 1.152-.867.512-1.763 1.04-1.763 2.166 0 1.216 1.226 1.836 2.536 2.045-.147-.27-.237-.449-.25-.477-.239-.483-.04-1.067.443-1.305" transform="translate(-579 -88) translate(579 88)"/>
                <path fill="#231F20" d="M132.17 44.488c-.133-.52-.66-.83-1.182-.701-.52.131-.836.66-.707 1.181.002.008.064.279.09.682 1.042-.443 1.641-.878 1.83-1.028l-.03-.134M141.677 51.298c.486-.23 1.068-.017 1.295.47l.23.498c1.841-2.813 3.2-5.554 3.28-5.715.238-.483.04-1.067-.444-1.305-.481-.237-1.067-.04-1.306.443-.026.054-2.663 5.376-5.47 8.643-3.706 4.311-5.71 2.76-6.464 2.175-1.484-1.15-2.806-3.804-2.818-3.83l-.02-.031c.086.159.131.343.116.536-.038.512-.465.901-.97.901l-.073-.002c-.183-.014-.369-.035-.552-.065.5.918 1.698 2.93 3.123 4.033 1.017.788 2.07 1.182 3.155 1.182 1.904 0 3.905-1.211 5.982-3.628.396-.46.786-.957 1.165-1.469-.411-.92-.69-1.521-.7-1.54-.228-.487-.017-1.068.47-1.296" transform="translate(-579 -88) translate(579 88)"/>
                <path fill="#231F20" d="M129.106 54.083c.505 0 .932-.39.97-.9.015-.195-.03-.378-.116-.537-.012-.022-.026-.042-.04-.063-.02-.033-.042-.067-.067-.097-.015-.017-.03-.032-.046-.047-.028-.03-.056-.059-.087-.084-.019-.016-.04-.029-.06-.043-.03-.02-.06-.042-.092-.06-.026-.013-.053-.024-.08-.035-.03-.014-.06-.027-.092-.037-.029-.009-.06-.015-.09-.021-.032-.007-.064-.014-.098-.018-.177-.02-.362.008-.534.092-.483.239-.682.823-.444 1.306.014.028.104.208.251.477.183.029.368.051.552.065l.073.002M143.202 52.266c-.411.63-.846 1.26-1.296 1.868.945 2.115 2.594 5.943 3.318 8.45.004.016.016.03.022.045.546-.406 1.11-.795 1.675-1.164-1.004-3.187-3.036-7.71-3.719-9.199" transform="translate(-579 -88) translate(579 88)"/>
                <path fill="#231F20" d="M142.972 51.768c-.227-.488-.81-.699-1.295-.47-.488.228-.699.81-.47 1.297.008.018.288.619.699 1.54.45-.609.885-1.24 1.296-1.869l-.23-.498" transform="translate(-579 -88) translate(579 88)"/>
                <path fill="#11A0C0" d="M143.064 69.447V67.49c1.784-3.006 8.282-6.49 10.688-7.603.122-.057.227-.135.312-.228-.19-.527-.376-1.065-.554-1.617-.188-.033-.388-.011-.575.074-.214.1-3.102 1.445-6.014 3.35.061.196.123.392.176.578.15.517-.148 1.057-.666 1.207-.09.026-.182.038-.27.038-.408 0-.778-.26-.916-.66-1.72 1.278-3.261 2.714-4.018 4.153-.074.14-.113.296-.113.455v3.502c0 .177.05.341.133.483.595-.624 1.203-1.216 1.817-1.775" transform="translate(-579 -88) translate(579 88)"/>
                <path fill="#11A0C0" d="M146.16 63.29c.09 0 .18-.014.271-.04.517-.148.816-.689.666-1.206-.054-.186-.114-.382-.177-.58-.564.37-1.128.76-1.675 1.165.139.4.508.66.915.66" transform="translate(-579 -88) translate(579 88)"/>
                <path fill="#231F20" d="M122.649 12.563c.047-.696.41-1.285 1.107-1.79.98-.037 3.914-.363 8.333-2.71.514-.273 1.08-.592 1.695-.94 5.631-3.185 15.053-8.513 27.682-2.35.138.06 13.767 6.234 11.612 22.742-.67 5.135-1.834 9.34-2.86 13.05-2.46 8.893-4.238 15.318 3.296 25.129.192.25.481.381.773.381.208 0 .417-.065.593-.201.428-.328.509-.94.18-1.368-6.22-8.102-5.595-13.54-3.673-20.814-.435-3.424-.254-6.262-.237-6.505.037-.537.497-.94 1.04-.904.537.037.942.503.905 1.04 0 .005-.003.035-.004.078.736-2.849 1.446-6 1.92-9.633C177.355 9.826 162.4 3.053 162.286 3.004c-13.514-6.595-23.887-.73-29.461 2.421-.6.339-1.15.65-1.65.916-4.837 2.57-7.65 2.487-7.668 2.487-.204-.011-.405.042-.577.152-1.722 1.1-2.161 2.485-2.226 3.455-.2 2.971 2.684 6.01 3.931 7.178.263-.723.532-1.389.782-1.971-1.26-1.307-2.882-3.398-2.767-5.079" transform="translate(-579 -88) translate(579 88)"/>
                <path fill="#231F20" d="M126.525 19.965c.348-.41.298-1.025-.113-1.374-.257-.218-.61-.548-.996-.949-.25.582-.519 1.249-.782 1.971.249.233.439.398.519.466.41.347 1.025.298 1.372-.114M141.084 31.9c.405.13.795.27 1.182.412-.095-.085-.153-.134-.16-.14-.412-.346-.465-.961-.118-1.373.234-.279.59-.389.924-.327-.404-.147-.809-.292-1.232-.428-5.651-1.818-8.809-8.063-10.898-12.195-.938-1.857-1.616-3.198-2.348-3.873-.322-.297-1.302-1.2-2.227-.609-.297.19-1.06.684-.329 3.232.336-.726.575-1.186.612-1.256.25-.476.838-.66 1.316-.41.477.25.66.84.41 1.316-.005.01-.09.173-.228.457.326.585.683 1.29 1.054 2.022 2.235 4.422 5.614 11.105 12.042 13.172M147.108 34.534c4.23 2.373 6.515 4.873 6.547 4.909.193.215.459.324.727.324.232 0 .463-.082.65-.248.4-.358.435-.973.078-1.375-.182-.203-4.28-4.728-11.903-7.57.053.03.105.065.154.105.143.12 1.854 1.576 3.747 3.855" transform="translate(-579 -88) translate(579 88)"/>
                <path fill="#231F20" d="M127.806 14.933c-.478-.25-1.067-.066-1.316.41-.037.07-.276.53-.612 1.256.036.123.07.244.113.377.164.513.711.795 1.226.631.47-.15.746-.623.663-1.095.036.06.073.13.108.195.138-.285.223-.448.229-.458.25-.477.065-1.066-.411-1.316M165.768 69.852c-1.692-.89-3.29-1.73-4.641-2.704-4.847-3.49-6.853-12.935-8.793-22.067l-.249-1.168c-.778-3.65-2.98-6.973-4.977-9.38-1.404-.786-3.019-1.557-4.841-2.221 1.015.898 6.654 6.107 7.912 12.008l.247 1.166c.944 4.443 1.867 8.772 3.085 12.556.304.053.578.25.717.552.17.366.092.784-.164 1.065.288.793.593 1.555.917 2.285.577-.234.941-.362 1.015-.388.509-.174 1.063.097 1.237.606.176.51-.095 1.063-.605 1.239-.016.005-.302.107-.79.305 1.126 2.093 2.473 3.817 4.149 5.024 1.462 1.054 3.12 1.925 4.874 2.847 6.977 3.67 14.857 7.828 12.007 25.687l.042-.111c.14-.384.494-.623.878-.637.622-1.028.759-1.227 1.236-1.916l.187-.271c1.607-16.546-6.676-20.917-13.443-24.477" transform="translate(-579 -88) translate(579 88)"/>
                <path fill="#231F20" d="M154.228 58.593c-.139-.302-.413-.498-.717-.551.177.551.362 1.09.553 1.617.256-.281.334-.7.164-1.066M141.988 30.799c-.347.412-.293 1.027.12 1.373.004.006.062.054.159.14 1.822.664 3.437 1.435 4.84 2.222-1.892-2.28-3.603-3.734-3.746-3.855-.049-.04-.1-.074-.154-.104-.094-.052-.194-.084-.295-.103-.334-.062-.69.048-.924.327M178.123 99.52c.025-.016.046-.035.069-.052-.02.014-.043.024-.064.037l-.005.014M178.456 99.19v-.002c-.052.088-.12.164-.197.23.075-.064.143-.138.197-.228" transform="translate(-579 -88) translate(579 88)"/>
                <g transform="translate(-579 -88) translate(579 88) translate(170.95 37.377)">
                    <mask id="jzici9rt9d" fill="#fff">
                        <use xlink:href="#4zwpxe37qc"/>
                    </mask>
                    <path fill="#231F20" d="M6.47 15.615C1.617 11.68 2.088 1 2.14.024c-.332 1.283-.669 2.512-.993 3.684-.249.898-.487 1.764-.71 2.606.484 3.8 1.728 8.32 4.806 10.816 5.969 4.837 16.496 19.353 8.898 30.974-3.768 5.763-5.184 7.838-5.88 8.848-.1 1.034-.239 2.115-.42 3.247-.003.043-.01.086-.02.13-.063.383-.12.762-.192 1.157-.022.117-.063.225-.12.322 1.54-2.567 1.541-2.568 2.169-3.476.63-.913 1.945-2.813 6.096-9.161 8.4-12.849-2.64-28.156-9.303-33.556" mask="url(#jzici9rt9d)"/>
                </g>
                <path fill="#231F20" d="M172.19 36.283c-.544-.037-1.003.367-1.04.904-.017.243-.198 3.081.237 6.504.222-.841.462-1.707.71-2.606.324-1.172.66-2.4.994-3.684l.004-.078c.037-.537-.368-1.003-.905-1.04M178.77 97.705c-.01.04-.016.08-.03.12-.187.509-.391 1.072-.612 1.68.021-.013.044-.023.064-.037.023-.016.047-.03.068-.05.076-.066.145-.142.197-.23l.002-.003c.057-.097.098-.205.12-.322.071-.395.13-.774.191-1.158M177.788 96.516c.123-.005.25.013.372.057.424.156.671.574.631 1.003.181-1.132.32-2.213.42-3.247l-.188.272c-.476.688-.613.888-1.235 1.915M181.394 86.074c-.147.518.154 1.057.672 1.204.09.025.179.036.267.036.425 0 .815-.28.937-.71 5.095-17.987-6.209-27.72-6.324-27.816-.413-.346-1.028-.292-1.373.122-.346.412-.292 1.027.12 1.372.106.089 10.455 9.005 5.7 25.792" transform="translate(-579 -88) translate(579 88)"/>
                <g transform="translate(-579 -88) translate(579 88) translate(133.9 103.677)">
                    <mask id="1ttw58zetf" fill="#fff">
                        <use xlink:href="#3o6t61z2ee"/>
                    </mask>
                    <path fill="#231F20" d="M3.22 16.97c-.452-1.832-.88-3.563-1.042-5.533-.6-7.29 1.88-10.434 2.298-10.907C3.24 1.714 1.984 2.903.726 4.077c-.472 1.888-.752 4.354-.492 7.52.176 2.126.642 4.014 1.093 5.84.663 2.682 1.288 5.215 1.102 8.542-.023.398-.097.846-.197 1.321H4.22c.075-.42.135-.83.156-1.212.203-3.62-.488-6.415-1.156-9.119" mask="url(#1ttw58zetf)"/>
                </g>
                <path fill="#231F20" d="M138.437 104.14c.386-.371.4-.985.032-1.374-.37-.39-.988-.406-1.379-.037-.098.093-1.604 1.584-2.464 5.025 1.258-1.174 2.513-2.362 3.75-3.547l.061-.068" transform="translate(-579 -88) translate(579 88)"/>
                <g transform="translate(-579 -88) translate(579 88) translate(165.75 97.177)">
                    <mask id="q9xpkyq6fh" fill="#fff">
                        <use xlink:href="#tg8b4hd3mg"/>
                    </mask>
                    <path fill="#231F20" d="M12.167 2.434c-.095.03-.192.051-.29.052l-.006.001h-.007c-.055 0-.111-.006-.169-.016-.016-.003-.03-.01-.046-.013-.026-.006-.05-.013-.074-.022-.062-.019-.12-.043-.175-.074-.01-.006-.022-.008-.032-.014l-.014-.01c-.032-.02-.062-.045-.092-.069-.02-.016-.043-.032-.062-.05-.023-.022-.044-.048-.066-.072-.02-.024-.041-.046-.06-.071-.016-.024-.03-.052-.045-.078-.015-.028-.034-.055-.047-.084-.013-.028-.02-.059-.03-.088-.011-.029-.023-.058-.03-.088-.007-.028-.01-.058-.014-.088-.004-.033-.01-.067-.012-.102 0-.024.003-.048.004-.073.001-.041.002-.081.009-.122l.001-.015c.078-.427.143-.839.208-1.25C10.346 2.2 1.537 26.387.481 33.8h1.958c.88-5.71 6.872-22.994 9.934-31.458-.04.025-.082.042-.124.06-.027.012-.054.023-.082.032" mask="url(#q9xpkyq6fh)"/>
                </g>
                <path fill="#231F20" d="M177.788 96.516c-.384.013-.739.254-.879.637l-.04.11c-.067.413-.13.825-.208 1.252-.002.005 0 .01-.002.016.02-.119.06-.235.125-.344.444-.74.76-1.268 1.004-1.671M177.62 99.664h.006-.006zM177.446 99.648c.057.01.113.015.169.015-.073 0-.145-.012-.216-.029.016.004.03.01.047.014M177.118 99.525c.01.007.022.008.033.014-.016-.008-.032-.015-.046-.024l.013.01M177.619 99.664h-.005.005M178 99.578c.041-.017.084-.035.123-.059l.005-.014c-.042.027-.083.054-.129.073" transform="translate(-579 -88) translate(579 88)"/>
                <path fill="#231F20" d="M178.16 96.573c-.122-.044-.249-.062-.371-.057-.244.403-.561.93-1.005 1.671-.066.109-.106.225-.125.344-.007.04-.008.08-.01.121 0 .024-.004.049-.003.074.002.034.008.068.012.102.005.029.007.059.014.087.007.03.019.059.03.088.01.03.017.06.03.088.013.03.032.056.047.084.015.026.029.054.046.078.018.025.04.047.06.07.02.025.042.051.065.073.019.019.041.034.062.05.03.024.06.048.092.069.014.01.031.016.046.024.055.03.113.055.175.074.024.008.048.016.074.022.071.016.143.028.215.028l.006.001h.006c.099-.002.196-.022.29-.053.03-.009.056-.02.083-.033.046-.019.087-.046.129-.073.22-.609.425-1.171.612-1.68.014-.04.021-.08.03-.12.01-.043.018-.086.022-.129.039-.429-.208-.847-.632-1.003M129.955 87.36c.296.449.17 1.053-.28 1.35l-4.055 2.662c-2.94 3.812-5.35 6.914-6.754 8.717l.386 2.15c.054.3-.04.59-.225.805.01-.012.024-.02.033-.033.11-.141 11.16-14.278 21.354-27.803 5.226-6.937 12.957-10.496 15.424-11.502-.302-.56-.585-1.15-.857-1.762-2.121.863-7.192 3.207-11.917 7.503v1.293c0 .538-.437.975-.975.975-.362 0-.673-.2-.842-.492-.828.871-1.634 1.805-2.391 2.811-3.318 4.403-6.724 8.867-9.816 12.895.35-.037.708.115.915.43M118.292 103.386L118.294 103.386 118.291 103.386zM117.692 103.179c.046.036.1.054.15.081-.055-.03-.114-.054-.164-.094.006.004.009.009.014.013" transform="translate(-579 -88) translate(579 88)"/>
                <path fill="#231F20" d="M119.252 102.239l-.386-2.15c-.834 1.072-1.32 1.693-1.341 1.721-.184.235-.239.527-.182.798.02.102.054.2.107.291.005.01.012.017.018.026.05.08.113.153.187.218.008.007.015.016.024.023.048.04.108.065.163.094.043.023.081.052.127.069.102.035.208.054.314.056h.011c.065 0 .13-.008.193-.021.026-.005.052-.015.078-.022.041-.012.082-.025.12-.042.025-.011.048-.024.071-.037.039-.02.076-.043.11-.068l.062-.049c.036-.032.068-.066.1-.102.184-.215.278-.504.224-.805M142.09 71.715c.537 0 .974-.437.974-.975v-1.293c-.614.559-1.222 1.15-1.817 1.776.169.292.48.492.842.492M157.234 62.162c-.176-.509-.73-.78-1.238-.606-.074.026-.438.154-1.015.388.272.611.556 1.202.858 1.762.487-.198.773-.3.79-.305.509-.176.78-.73.605-1.239M125.62 91.372c1.077-1.396 2.225-2.886 3.42-4.443-.15.015-.3.062-.435.15l-10.8 7.094.374 2.087 7.441-4.888z" transform="translate(-579 -88) translate(579 88)"/>
                <path fill="#231F20" d="M116.146 95.97l.001.008c.023.123.07.244.144.356.187.284.498.439.815.439.184 0 .37-.051.535-.16l.538-.353-.374-2.088-1.235.81c-.336.222-.491.616-.424.988M129.675 88.71c.45-.297.576-.901.28-1.35-.207-.317-.565-.468-.916-.431-1.194 1.557-2.342 3.046-3.419 4.443l4.055-2.663z" transform="translate(-579 -88) translate(579 88)"/>
            </g>
        </g>
    </g>
</svg>
