<?xml version="1.0" encoding="UTF-8"?>
<svg width="113px" height="45px" viewBox="0 0 113 45" version="1.1" xmlns="http://www.w3.org/2000/svg" xmlns:xlink="http://www.w3.org/1999/xlink">
    <!-- Generator: Sketch 63.1 (92452) - https://sketch.com -->
    <title>logo_new_maum_footer</title>
    <desc>Created with Sketch.</desc>
    <defs>
        <polygon id="path-1" points="0.5381 0.6864 12.8521 0.6864 12.8521 13 0.5381 13"></polygon>
        <polygon id="path-3" points="0.517406413 0.528541443 2.98933843 0.528541443 2.98933843 3 0.517406413 3"></polygon>
        <polygon id="path-5" points="0 45 113 45 113 0 0 0"></polygon>
    </defs>
    <g id="Page-1" stroke="none" stroke-width="1" fill="none" fill-rule="evenodd">
        <g id="sub_landing_minutes" transform="translate(-59.000000, -804.000000)">
            <g id="logo_new_maum_footer" transform="translate(59.000000, 804.000000)">
                <path d="M14.9990234,45 C6.72837435,45 0,38.3243674 0,30.1185495 C0,26.5770074 1.2751881,23.146045 3.59161245,20.4562662 C5.54757026,18.1858936 8.14413436,16.5550907 11.0168219,15.7710699 C11.6825303,6.96453477 19.1177806,0 28.1605711,0 C35.0807257,0 41.2518328,4.11934648 43.9387646,10.2759514 C45.8143956,9.25283921 47.9340193,8.70591751 50.0988268,8.70591751 C56.5761798,8.70591751 61.946027,13.503686 62.7894585,19.7041243 C66.3800669,20.1862921 69.6222577,22.160789 71.6846486,25.1892807 C72.2529607,26.0231122 72.032062,27.1568041 71.1916428,27.7196653 C70.3502194,28.2835226 69.2085747,28.0643554 68.6412666,27.2295278 C66.9373341,24.7280335 64.1058141,23.2337119 61.0674526,23.2337119 L59.2309809,23.2337119 L59.2309809,21.4116358 C59.2309809,16.4166169 55.1343136,12.3520622 50.0988268,12.3520622 C47.9350234,12.3520622 45.8354814,13.118151 44.1867736,14.5098625 L41.9717619,16.3797569 L41.2217103,13.5913529 C39.6473048,7.7356047 34.2764535,3.64514844 28.1605711,3.64514844 C20.7072473,3.64514844 14.6425732,9.66228332 14.6425732,17.0581789 L14.6435773,17.0950389 C14.6435773,17.1368799 14.6455855,17.1777246 14.6455855,17.2195657 L14.6646631,18.7816298 L13.1133516,19.0386531 C10.5027303,19.4730026 8.11401181,20.817892 6.38397316,22.825264 C4.63586097,24.8535565 3.67294335,27.4437139 3.67294335,30.1185495 C3.67294335,36.3140068 8.75361403,41.3548516 14.9990234,41.3548516 C16.0131494,41.3548516 16.8354951,42.1707511 16.8354951,43.1769277 C16.8354951,44.1841004 16.0131494,45 14.9990234,45" id="Fill-1" fill="#14B6CB"></path>
                <path d="M35.1398979,33 C33.7490426,33 32.4223047,33.5905953 31.5,34.6207261 C30.6418127,33.6617396 29.4571196,33.0896613 28.1649066,33.0087712 C28.0593594,33.0029237 27.9567715,33 27.8531972,33 C26.1003249,33 24.4677962,33.9219524 23.5356272,35.5689921 C23.1696646,36.2141639 23,36.9499716 23,37.6896776 L23,45 L25.4384357,45 L25.4384357,37.4801429 C25.4384357,36.8807764 25.7185796,36.3077235 26.2137635,35.9627223 C28.1668794,34.6002599 30.2797958,35.9607732 30.2797958,37.8017542 L30.2797958,45 L32.7192178,45 L32.7192178,37.4801429 C32.7192178,36.8807764 32.9993617,36.3077235 33.4935592,35.9627223 C35.4476616,34.6002599 37.5605779,35.9607732 37.5605779,37.8017542 L37.5605779,45 L40,45 L40,37.6964996 C40,37.0786161 39.8905071,36.459758 39.626146,35.8993746 C38.7600673,34.0613173 37.0328421,33 35.1398979,33" id="Fill-3" fill="#040201"></path>
                <g id="Group-7" transform="translate(42.000000, 32.000000)">
                    <mask id="mask-2" fill="white">
                        <use xlink:href="#path-1"></use>
                    </mask>
                    <g id="Clip-6"></g>
                    <path d="M11.0491,2.4904 C10.4831,1.9254 9.8251,1.4814 9.0921,1.1714 C8.3331,0.8494 7.5271,0.6864 6.6951,0.6864 C5.8641,0.6864 5.0581,0.8494 4.2991,1.1714 C3.5661,1.4814 2.9071,1.9254 2.3421,2.4904 C1.7771,3.0554 1.3331,3.7144 1.0231,4.4474 C0.7011,5.2074 0.5381,6.0124 0.5381,6.8444 C0.5381,7.6754 0.7011,8.4804 1.0231,9.2404 C1.3331,9.9734 1.7771,10.6324 2.3421,11.1964 C2.9071,11.7614 3.5661,12.2074 4.2991,12.5164 C5.0581,12.8374 5.8641,13.0004 6.6951,13.0004 C7.7701,13.0004 8.8471,12.7134 9.7771,12.1744 L9.7771,10.1304 C9.7771,10.1194 9.7731,10.1074 9.7661,10.0984 C9.4691,9.7004 9.0381,9.6704 8.7601,9.8974 C8.5801,10.0444 8.3741,10.1594 8.1571,10.2444 C4.8761,11.5304 1.7861,8.2234 3.5001,4.9314 C3.7861,4.3834 4.2411,3.9294 4.7911,3.6444 C7.5801,2.1984 10.3791,4.2014 10.3791,6.8444 L10.3791,12.8774 L12.8521,12.8774 L12.8521,6.8444 C12.8521,6.0124 12.6901,5.2074 12.3681,4.4474 C12.0581,3.7144 11.6141,3.0554 11.0491,2.4904" id="Fill-5" fill="#040201" mask="url(#mask-2)"></path>
                </g>
                <path d="M68,33 L65.5455202,33 L65.5455202,39.9224397 C65.5455202,40.7790953 65.1018677,41.5840981 64.3614545,42.0372777 C61.9625553,43.5059693 59.4534873,41.8355397 59.4534873,39.5998538 L59.4534873,33 L57,33 L57,39.5998538 C57,40.329814 57.1449066,41.0363843 57.4327348,41.7029968 C57.7086529,42.3452449 58.1056573,42.9231706 58.6108454,43.4182571 C59.1160336,43.9143182 59.7045926,44.3041501 60.3596499,44.5770324 C61.0365425,44.8577114 61.7571055,45 62.4995037,45 C63.241902,45 63.9634575,44.8577114 64.6403501,44.5770324 C65.2954074,44.3041501 65.8839664,43.9143182 66.3891546,43.4182571 C66.8943427,42.9231706 67.2903546,42.3452449 67.5672652,41.7029968 C67.8550934,41.0363843 68,40.329814 68,39.5998538 L68,33 Z" id="Fill-8" fill="#040201"></path>
                <path d="M83.1398979,33 C81.7490426,33 80.4223047,33.5905953 79.5009864,34.6207261 C78.6418127,33.6617396 77.4571196,33.0896613 76.1649066,33.0087712 C76.0603458,33.0029237 75.9567715,33 75.8531972,33 C74.0993385,33 72.4638505,33.9239016 71.532668,35.573865 C71.1696646,36.2180622 71,36.9528953 71,37.6896776 L71,45 L73.4394221,45 L73.4394221,37.4791684 C73.4394221,36.8798018 73.719566,36.3057744 74.2147499,35.9607732 C76.1698387,34.6012345 78.2807822,35.9617477 78.2807822,37.8017542 L78.2807822,45 L80.7202042,45 L80.7202042,37.4781938 C80.7202042,36.8798018 81.0003481,36.3057744 81.4955321,35.9607732 C83.448648,34.6012345 85.5615643,35.9617477 85.5615643,37.8017542 L85.5615643,45 L88,45 L88,37.6926013 C88,37.0825144 87.8914936,36.4724275 87.6340374,35.9178917 C86.7728908,34.0681394 85.039747,33 83.1398979,33" id="Fill-10" fill="#040201"></path>
                <g id="Group-14" transform="translate(90.000000, 42.000000)">
                    <mask id="mask-4" fill="white">
                        <use xlink:href="#path-3"></use>
                    </mask>
                    <g id="Clip-13"></g>
                    <path d="M2.5482,0.7833 C1.2972,-0.0447 -0.0558,1.3043 0.7712,2.5573 C0.8192,2.6323 0.8872,2.6993 0.9622,2.7483 C2.2132,3.5693 3.5582,2.2253 2.7382,0.9733 C2.6902,0.8993 2.6232,0.8323 2.5482,0.7833" id="Fill-12" fill="#040201" mask="url(#mask-4)"></path>
                </g>
                <mask id="mask-6" fill="white">
                    <use xlink:href="#path-5"></use>
                </mask>
                <g id="Clip-16"></g>
                <polygon id="Fill-15" fill="#040201" mask="url(#mask-6)" points="108 45 111 45 111 33 108 33"></polygon>
                <path d="M104.242001,34.757999 C103.691408,34.2074062 103.049212,33.774728 102.334903,33.4726328 C101.595257,33.1588436 100.80981,33 99.9990255,33 C99.1892155,33 98.4047426,33.1588436 97.6641221,33.4726328 C96.9507877,33.774728 96.3076173,34.2074062 95.7570245,34.757999 C95.2064317,35.3085918 94.7737535,35.9507877 94.4726328,36.6650966 C94.1588436,37.4057171 94,38.19019 94,39.0009745 C94,39.8107845 94.1588436,40.5952574 94.4726328,41.3358779 C94.7737535,42.0501868 95.2064317,42.6923827 95.7570245,43.242001 C96.3076173,43.7925938 96.9507877,44.227221 97.6641221,44.5283417 C98.4047426,44.8411564 99.1892155,45 99.9990255,45 C101.047588,45 102.097125,44.7203183 103.002436,44.1950625 L103.002436,42.2012344 C103.002436,42.1905149 102.998538,42.1788209 102.992691,42.1700503 C102.700341,41.7831736 102.281306,41.7558876 102.00942,41.9780737 C101.83401,42.1203508 101.634237,42.2324184 101.423745,42.3142764 C98.2254345,43.5665097 95.2161767,40.3438363 96.8854962,37.1377294 C97.1642033,36.6027286 97.6076011,36.1603053 98.1435764,35.8825727 C100.862433,34.4734449 103.589086,36.424395 103.589086,39.0009745 L103.589086,44.8801364 L106,44.8801364 L106,39.0009745 C106,38.19019 105.841156,37.4057171 105.527367,36.6650966 C105.226247,35.9507877 104.792594,35.3085918 104.242001,34.757999" id="Fill-17" fill="#040201" mask="url(#mask-6)"></path>
                <path d="M113,27 C113,28.6567893 111.657008,30 110.000488,30 C108.342992,30 107,28.6567893 107,27 C107,25.3432107 108.342992,24 110.000488,24 C111.657008,24 113,25.3432107 113,27" id="Fill-18" fill="#14B6CB" mask="url(#mask-6)"></path>
            </g>
        </g>
    </g>
</svg>