<svg xmlns="http://www.w3.org/2000/svg" xmlns:xlink="http://www.w3.org/1999/xlink" width="211" height="29" viewBox="0 0 211 29">
    <defs>
        <path id="prefix__a" d="M0.567 0.172L14.987 0.172 14.987 18.198 0.567 18.198z"/>
        <path id="prefix__c" d="M0 27.763L210.587 27.763 210.587 0 0 0z"/>
    </defs>
    <g fill="none" fill-rule="evenodd">
        <g transform="translate(195.6 9.563)">
            <mask id="prefix__b" fill="#fff">
                <use xlink:href="#prefix__a"/>
            </mask>
            <path fill="#FEFEFE" d="M14.328 10.21c-.467-.824-1.163-1.479-2.014-1.892-.569-.282-1.169-.504-1.785-.66-.676-.174-1.365-.333-2.049-.474-.413-.09-.829-.193-1.237-.312-.455-.136-.868-.393-1.19-.742-.327-.354-.4-.866-.191-1.299.078-.169.204-.312.359-.415.316-.218.675-.361 1.057-.43.373-.07.755-.09 1.131-.064 1.236.088 2.368.763 3.034 1.804l3.178-2.348c-.734-1.144-1.788-2.023-3.047-2.542-2.393-.984-5.081-.87-7.38.31-1.695.868-2.75 2.588-2.75 4.488 0 1.723 1.004 3.329 2.553 4.088 1.038.51 2.142.864 3.283 1.058.696.116 1.383.297 2.041.54.374.134.706.338.999.6.063.06.12.122.171.193.372.527.249 1.259-.282 1.63-.468.332-1.016.554-1.584.645-.29.047-.583.068-.873.068-.622 0-1.241-.103-1.829-.307-.93-.323-1.739-.954-2.28-1.778L.567 14.803c.962 1.522 2.452 2.6 4.196 3.04 2.301.58 4.696.447 6.916-.382 1.275-.474 2.285-1.418 2.848-2.65.563-1.233.612-2.614.136-3.884-.092-.246-.204-.488-.335-.717" mask="url(#prefix__b)"/>
        </g>
        <path fill="#FEFEFE" d="M109.65 19.133l-.002.002s-.002.005-.005.005l-.005.003-.007-.003-.006-.005v-.002L101.33.001h-6.114v27.04h4.51V7.03v-.007l.005-.003h.007l.005.003.005.002c0 .002.002.002.002.002l8.679 20.014h2.419l8.678-20.026h.003c0-.002 0-.004.002-.004.003-.003.003-.003.005-.003h.007l.003.003c.002 0 .002.002.004.004l.003.003V27.04h4.507V.001h-6.118l-8.292 19.132z"/>
        <mask id="prefix__d" fill="#fff">
            <use xlink:href="#prefix__c"/>
        </mask>
        <path fill="#FEFEFE" d="M129.467 27.041L133.974 27.041 133.974.001 129.467.001zM159.211 20.017h-.002V20.026h-.002l-.008.005c-.007 0-.01-.002-.012-.007L145.394 0h-6.014v27.04h4.509V7.024l.002-.005v-.002l.003-.002s.002 0 .004-.003h.005l.005.003.002.004h.003l13.79 20.024h6.015V0h-4.508v20.016zM180.647 22.438h-6.989V4.602h6.99c4.989 0 9.046 4 9.046 8.917 0 4.918-4.057 8.919-9.047 8.919m0-22.437h-11.522v27.04h11.522c7.564 0 13.719-6.066 13.719-13.522 0-7.453-6.155-13.518-13.719-13.518M72.906 22.571c-4.791 0-8.689-3.9-8.689-8.69 0-4.793 3.898-8.69 8.69-8.69 4.79 0 8.687 3.897 8.687 8.69 0 4.79-3.897 8.69-8.688 8.69m0-22.57c-7.668 0-13.88 6.213-13.88 13.88 0 7.664 6.212 13.882 13.88 13.882 7.666 0 13.88-6.218 13.88-13.882 0-7.667-6.214-13.88-13.88-13.88M56.254 18.969c-.206-.12-.438-.18-.674-.18h-3.256c-.406 0-.788.178-1.045.492-.341.413-.726.8-1.146 1.144-1.513 1.249-3.43 1.935-5.393 1.935-2.549 0-4.937-1.122-6.553-3.079-1.441-1.748-2.117-3.954-1.902-6.211.217-2.257 1.298-4.294 3.047-5.735 1.512-1.25 3.428-1.937 5.392-1.937 2.55 0 4.938 1.123 6.555 3.085.259.31.64.488 1.045.488h3.256c.745 0 1.35-.608 1.35-1.353 0-.241-.062-.475-.18-.677-.938-1.622-2.164-3.014-3.645-4.132-1.431-1.083-3.04-1.868-4.78-2.334-1.737-.465-3.538-.59-5.308-.369-1.843.228-3.601.819-5.225 1.756-1.622.937-3.013 2.166-4.132 3.647-1.08 1.43-1.867 3.034-2.332 4.78-.466 1.743-.592 3.528-.37 5.307.228 1.843.82 3.6 1.756 5.222.936 1.623 2.16 3.012 3.646 4.134 1.432 1.081 3.039 1.866 4.78 2.333 1.178.316 2.39.478 3.595.478.564 0 1.141-.038 1.711-.108 1.846-.23 3.603-.82 5.225-1.756 2.107-1.216 3.862-2.971 5.079-5.08.18-.313.229-.678.135-1.027-.093-.349-.317-.643-.631-.823M20.19 11.572H7.572l-1.867-.01c0-.97.676-2.068.676-2.068.753-1.286 1.832-2.36 3.119-3.113 2.001-1.17 4.339-1.493 6.588-.903 2.242.586 4.123 2.014 5.294 4.016 0 0 .593 1.099.593 2.073l-1.783.005zM6.66 16.217h19.684c.717 0 1.32-.56 1.374-1.272.144-1.87-.081-3.71-.674-5.47-.571-1.707-1.455-3.26-2.626-4.628-1.173-1.368-2.579-2.481-4.171-3.303-1.65-.854-3.434-1.358-5.304-1.5-1.868-.148-3.71.079-5.47.674-1.701.57-3.258 1.453-4.623 2.628-1.372 1.171-2.484 2.575-3.307 4.169C.692 9.167.184 10.95.043 12.816c-.146 1.874.085 3.713.675 5.474.57 1.699 1.453 3.255 2.628 4.623 1.171 1.37 2.575 2.484 4.169 3.303 1.655.855 3.437 1.36 5.306 1.502.354.026.713.044 1.068.044 1.384 0 2.758-.21 4.09-.62 1.676-.518 3.217-1.337 4.586-2.434.287-.229.465-.56.507-.927.04-.366-.061-.723-.293-1.015-.032-.035-.066-.075-.1-.108l-1.754-1.754c-.484-.482-1.26-.538-1.81-.123 0 .002 0 0 0 0-.274.209-.561.403-.864.573-4.123 2.415-9.434 1.02-11.846-3.103 0 0-.536-1.105-.536-2.034h.792z" mask="url(#prefix__d)"/>
    </g>
</svg>
