<?xml version="1.0" encoding="UTF-8"?>
<svg width="70px" height="77px" viewBox="0 0 70 77" version="1.1" xmlns="http://www.w3.org/2000/svg" xmlns:xlink="http://www.w3.org/1999/xlink">
    <title>Group 24</title>
    <defs>
        <polygon id="path-1" points="0 0 40.6295922 0 40.6295922 19.300065 0 19.300065"></polygon>
        <polygon id="path-3" points="0 77 70 77 70 0 0 0"></polygon>
    </defs>
    <g id="Page-1" stroke="none" stroke-width="1" fill="none" fill-rule="evenodd">
        <g id="maum_landing_new_header" transform="translate(-1536.000000, -3514.000000)">
            <g id="success" transform="translate(-1.000000, 2837.000000)">
                <g id="Group-27" transform="translate(483.000000, 196.000000)">
                    <g id="Group-24" transform="translate(1054.000000, 481.000000)">
                        <g id="Group-3" transform="translate(0.000000, 26.108908)">
                            <mask id="mask-2" fill="white">
                                <use xlink:href="#path-1"></use>
                            </mask>
                            <g id="Clip-2"></g>
                            <path d="M40.6295922,13.4424577 C40.6295922,13.4424577 36.4187523,9.41222367 33.962429,8.11053316 C33.962429,8.11053316 31.4559767,6.60858257 29.0247179,5.98276983 C29.0247179,5.98276983 26.0420397,5.20676203 22.4327483,5.48211964 C22.4327483,5.48211964 17.0188113,5.93270481 15.7906496,5.78250975 C15.7906496,5.78250975 12.6575842,6.05786736 9.37413169,4.48081925 C9.37413169,4.48081925 6.29119533,3.25422627 5.53925964,0 L-1.63010687e-06,0 C-1.63010687e-06,0 -0.0250645232,5.18172952 6.14080819,8.58615085 C6.14080819,8.58615085 9.2738736,10.5386866 14.1865202,10.9392068 C14.1865202,10.9392068 15.6903916,11.3647594 19.926296,11.0643693 C19.926296,11.0643693 25.0645232,10.6388166 28.1725241,12.7415475 C28.1725241,12.7415475 31.756751,14.9444083 35.5164294,19.300065" id="Fill-1" fill="#009640" mask="url(#mask-2)"></path>
                        </g>
                        <mask id="mask-4" fill="white">
                            <use xlink:href="#path-3"></use>
                        </mask>
                        <g id="Clip-5"></g>
                        <path d="M31.5939318,11.0018882 L33.373513,11.0018882 L33.373513,9.22457997 L31.5939318,9.22457997 L31.5939318,11.0018882 Z M28.1600921,11.0018882 L29.9396733,11.0018882 L29.9396733,9.22457997 L28.1600921,9.22457997 L28.1600921,11.0018882 Z M24.5882973,11.0143043 L26.3678785,11.0143043 L26.3678785,9.2369961 L24.5882973,9.2369961 L24.5882973,11.0143043 Z M65.5186638,26.1339402 C65.5186638,26.1339402 62.4357274,23.8059168 58.3752746,22.7295189 C58.3752746,22.7295189 55.2171447,21.853381 49.3019172,21.4278283 C49.3019172,21.4278283 37.9476882,20.9271782 36.0678489,21.1024057 L34.9148809,7.60988296 L33.1102352,7.60988296 L33.0601062,6.23309493 C33.0601062,6.23309493 34.6642356,6.10793238 35.2407197,5.78250975 C35.2407197,5.78250975 36.0427844,5.85760728 35.8172037,4.03023407 C35.8172037,4.03023407 33.5613966,3.52958388 32.6089447,1.65214564 L32.6089447,0 L31.80688,0 L31.80688,0.550715215 C31.80688,0.550715215 31.1552024,1.05136541 28.8743308,1.00130039 C28.8743308,1.00130039 26.2425558,1.0263329 25.916717,0.625812744 L25.916717,0.0500650195 L25.1146523,0.0500650195 L25.1146523,1.75227568 C25.1146523,1.75227568 24.5632328,3.40442133 21.9815869,4.15539662 C21.9815869,4.15539662 21.7058771,5.6573472 22.5079419,5.9076723 C22.5079419,5.9076723 23.4854583,6.20806242 24.7136199,6.30819246 L24.7136199,7.63491547 L23.0092323,7.63491547 L22.5330064,13.9681404 L22.1905248,19.508736 L21.7185096,26.3342003 L36.5440749,26.1589727 C36.5440749,26.1589727 46.1187228,26.3342003 49.3771108,26.5594928 C49.3771108,26.5594928 56.5956935,26.6345904 60.4806946,29.5383615 C60.4806946,29.5383615 63.037276,31.0903771 62.8868888,33.1931079 C62.8868888,33.1931079 62.6362436,34.720091 61.2326303,35.3208713 C61.2326303,35.3208713 60.0044686,36.2971391 57.4729518,35.8215215 C57.4729518,35.8215215 54.3900154,35.1957087 52.9613376,35.7213914 C52.9613376,35.7213914 51.3070791,36.2470741 50.0037239,38.6752276 C50.0037239,38.6752276 48.4998525,41.9044213 45.792884,41.9544863 C45.792884,41.9544863 43.687464,42.5052016 40.6295922,39.5513654 L35.5164294,45.4089727 C35.5164294,45.4089727 38.8750756,49.1888817 41.9580119,50.7408973 C41.9580119,50.7408973 46.3443035,53.5695709 50.3546272,49.7896619 C50.3546272,49.7896619 51.8083695,48.5380364 53.4626281,45.8094928 C53.4626281,45.8094928 55.4427254,42.3550065 58.8765651,42.0546164 C58.8765651,42.0546164 62.6863726,41.8293238 63.7641471,41.6540962 C63.7641471,41.6540962 68.9023744,41.3286736 69.9049553,35.846554 C69.9049553,35.846554 71.0328589,29.9889467 65.5186638,26.1339402 L65.5186638,26.1339402 Z" id="Fill-4" fill="#164193" mask="url(#mask-4)"></path>
                        <path d="M11.3792936,18.3988947 C11.3792936,18.3988947 10.5270998,18.2737321 10.5521643,18.0985046 C10.5521643,18.0985046 11.1537128,18.0484395 11.5547452,18.1986346 L12.4821326,18.1986346 C12.4821326,18.1986346 12.0309712,18.5240572 11.3792936,18.3988947 M9.67490597,21.0523407 C9.67490597,21.0523407 10.4519062,21.1024057 10.5772288,21.2025358 C10.5772288,21.2025358 10.0759383,21.5529909 9.67490597,21.0523407 M18.1717794,14.9694408 C18.1717794,14.9694408 15.6903916,16.646619 14.9133913,16.7717815 C14.9133913,16.7717815 12.2314873,17.873212 9.34906717,16.9970741 L9.34906717,17.2349831 C9.34906717,17.2349831 9.87542216,17.3351131 9.93818372,17.4226268 C9.93818372,17.4226268 9.9255512,17.5978544 9.36149917,17.4226268 L9.36149917,17.7604655 C9.36149917,17.7604655 9.83792563,17.9106606 10.4144097,18.0484395 C10.4144097,18.0484395 10.3642806,18.211251 9.37413169,17.9983745 L9.37413169,18.3738622 C9.37413169,18.3738622 10.5270998,18.8244473 11.3917256,18.7994148 C11.3917256,18.7994148 11.5296807,19.0747724 10.6397899,19.0122913 L9.64984145,18.8995449 C9.64984145,18.8995449 9.52451883,19.0122913 9.83792563,19.1124213 C9.83792563,19.1124213 10.2764545,19.300065 10.3516481,19.3875787 C10.3516481,19.3875787 10.2764545,19.4001951 9.3865637,19.300065 L9.3865637,19.5377737 C9.3865637,19.5377737 10.4645387,19.8381638 10.790177,20.0386242 C10.790177,20.0386242 10.7025514,20.1637867 10.1761964,19.9883589 L9.41162822,19.8007152 L9.41162822,20.2138518 C9.41162822,20.2138518 10.1386999,20.3890793 10.25139,20.4515605 L10.2640225,20.5516905 C10.2640225,20.5516905 9.9255512,20.576723 9.6999705,20.5392744 L9.42426074,20.426528 L9.42426074,20.8020156 L9.64984145,20.8771131 L9.41162822,21.0649571 L9.41162822,21.4528609 C9.41162822,21.4528609 10.201261,21.615472 10.7276159,21.615472 C10.7276159,21.615472 11.2289064,21.7782835 11.4795516,21.8283485 C11.4795516,21.8283485 11.6299388,22.0286086 10.9656287,21.9158622 C10.9656287,21.9158622 10.3141516,21.8784135 10.0007448,21.853381 C10.0007448,21.853381 9.78779658,22.0786736 9.42426074,21.9284785 L9.42426074,22.4791938 C9.42426074,22.4791938 12.5071971,23.2051365 15.2015331,22.0660572 C15.2015331,22.0660572 16.0078087,21.7282185 17.7290396,20.7269181 C17.7290396,20.7269181 19.8511024,19.2916541 22.1905248,19.508736 L22.5330064,13.9681404 C22.5330064,13.9681404 20.0516186,13.8179454 18.1717794,14.9694408" id="Fill-6" fill="#E20714" mask="url(#mask-4)"></path>
                        <path d="M18.2469729,56.1604356 L14.3495398,56.1604356 C14.3495398,56.1604356 14.8883268,56.5233069 15.0637785,56.9490598 C15.0637785,56.9490598 15.4521783,58.5511404 14.1490236,59.5522406 C14.1490236,59.5522406 12.983423,60.89158 10.1010029,61.2043862 L10.9405641,61.9179129 C10.9405641,61.9179129 11.9056485,62.218303 14.2867782,61.2921001 C14.2867782,61.2921001 15.7529526,60.6913199 16.3170046,59.8275982 C16.3170046,59.8275982 17.0063793,60.8288986 18.7733279,61.3671977 C18.7733279,61.3671977 20.2898318,61.880264 21.5805545,61.8928804 L22.5705029,61.1042562 C22.5705029,61.1042562 20.1394447,60.8539311 18.7983924,59.7901495 C18.7983924,59.7901495 17.4573402,59.0642068 17.4824047,57.3994447 C17.4824047,57.3994447 17.3322181,56.6610858 18.2345409,56.1978843" id="Fill-7" fill="#6F6F6E" mask="url(#mask-4)"></path>
                        <path d="M9.51198657,62.9943108 L9.51198657,64.5963914 L15.1890008,64.5963914 L15.1890008,69.0271456 L17.5576985,69.0271456 L17.5576985,64.5463264 L23.1597197,64.5463264 L23.1597197,62.9818947 C23.1597197,62.9818947 22.8212484,63.2820845 22.4328486,63.2820845 L10.2013612,63.2820845 C10.2013612,63.2820845 9.90038642,63.2696684 9.51198657,62.9943108" id="Fill-8" fill="#6F6F6E" mask="url(#mask-4)"></path>
                        <path d="M32.7843964,60.1003124 C32.0404814,60.1003124 31.4375292,59.4030068 31.4375292,58.5428897 C31.4375292,57.6823722 32.0404814,56.9850666 32.7843964,56.9850666 C33.5283115,56.9850666 34.1312636,57.6823722 34.1312636,58.5428897 C34.1312636,59.4030068 33.5283115,60.1003124 32.7843964,60.1003124 M32.8010392,55.8602057 C30.7846485,55.8602057 29.1666834,57.1394671 29.1666834,58.5470952 C29.1666834,59.9547233 30.8014918,61.0962057 32.8178826,61.0962057 C34.8342734,61.0962057 36.3770449,59.933696 36.3770449,58.5260679 C36.3770449,57.1182395 34.81743,55.8602057 32.8010392,55.8602057" id="Fill-9" fill="#6F6F6E" mask="url(#mask-4)"></path>
                        <polygon id="Fill-10" fill="#6F6F6E" mask="url(#mask-4)" points="28.3396544 61.4129571 28.3396544 62.7482913 31.5980424 62.7482913 31.5980424 64.650762 33.9541076 64.650762 33.9541076 62.6814044 37.6301708 62.6814044 37.6301708 61.4297789 36.9618504 61.5631521 28.991332 61.5631521"></polygon>
                        <path d="M30.5954615,65.3516723 L33.7034623,65.3516723 C33.7034623,65.3516723 33.3860452,65.8186788 33.3860452,66.0858257 L33.3860452,67.6546632 L41.5737226,67.6546632 L41.5737226,68.7224499 L32.466879,68.7224499 C32.466879,68.7224499 31.2637819,68.872645 31.02998,67.6378414 L31.02998,66.1527126 C31.02998,66.1527126 31.0466229,65.9188088 30.5954615,65.3516723" id="Fill-11" fill="#6F6F6E" mask="url(#mask-4)"></path>
                        <path d="M35.5247509,63.4824447 L35.5247509,64.500567 L38.6828808,64.500567 L38.6828808,65.7021274 L41.0223031,65.7021274 L41.0223031,56.7569103 C41.0223031,56.7569103 41.0555888,56.2562601 41.7742388,55.8893836 L37.8641732,55.8893836 C37.8641732,55.8893836 38.6493946,56.3399688 38.6662379,56.7068453 L38.6662379,63.4323797 L35.5247509,63.4824447 Z" id="Fill-12" fill="#6F6F6E" mask="url(#mask-4)"></path>
                        <path d="M49.193438,56.056 L53.0365312,56.056 C53.0365312,56.056 52.4181393,56.4064551 52.3178812,56.890684 C52.3178812,56.890684 52.1342083,59.54413 52.8027293,60.6788036 C52.8027293,60.6788036 53.8554393,62.7983563 55.9608592,63.1319896 L54.9245916,64.0331599 C54.9245916,64.0331599 52.3347245,63.8829649 51.1649131,61.579974 C51.1649131,61.579974 50.0456318,63.7996567 47.4389213,64.1000468 L46.3525246,63.2653628 C46.3525246,63.2653628 48.6083317,62.7482913 49.4942122,60.6619818 C49.4942122,60.6619818 50.1623322,59.8445202 49.9116869,56.8570403 C49.9116869,56.8570403 49.961816,56.5566502 49.193438,56.056" id="Fill-13" fill="#6F6F6E" mask="url(#mask-4)"></path>
                        <path d="M56.1946611,55.7223667 L60.0545977,55.7223667 C60.0545977,55.7223667 59.4029201,55.9895137 59.3195054,56.573472 L59.3195054,68.5057685 L57.0135692,68.5057685 L57.0135692,56.5902939 C57.0135692,56.5902939 56.9465968,56.0227568 56.1946611,55.7223667" id="Fill-14" fill="#6F6F6E" mask="url(#mask-4)"></path>
                        <path d="M13.3270877,72.6789683 C13.2859819,71.7677849 12.5302364,71.4804117 11.8649237,71.4804117 C11.3636332,71.4804117 10.5174549,71.6201932 10.5174549,72.5149553 C10.5174549,73.0156055 10.8707645,73.1798187 11.2158528,73.2619254 L12.8977826,73.6478265 C13.6627518,73.8282609 14.2396369,74.2882583 14.2396369,75.2240736 C14.2396369,76.617283 12.9388884,76.99998 11.9276853,76.99998 C10.834471,76.99998 10.4069705,76.6741568 10.1436928,76.4380502 C9.6411992,75.987465 9.54234472,75.4950255 9.54234472,74.9449111 L10.2918742,74.9449111 C10.2918742,76.0122973 11.1633176,76.3241022 11.9194641,76.3241022 C12.4949456,76.3241022 13.4648424,76.1763103 13.4648424,75.3308122 C13.4648424,74.7150125 13.1771016,74.5181568 12.2098115,74.2882583 L11.0023031,74.0090957 C10.6161089,73.9187784 9.74286091,73.6478265 9.74286091,72.6214936 C9.74286091,71.7020996 10.3444095,70.8045339 11.7744909,70.8045339 C13.8378025,70.8045339 14.0437326,72.0305261 14.0766172,72.6789683 L13.3270877,72.6789683 Z" id="Fill-15" fill="#6F6F6E" mask="url(#mask-4)"></path>
                        <path d="M19.7591657,70.9546489 L19.7591657,74.7804174 C19.7591657,75.9871847 19.000613,76.9998999 17.3822469,76.9998999 C15.7963644,76.9998999 15.1120026,75.9871847 15.1120026,74.887156 L15.1120026,70.9546489 L15.9118617,70.9546489 L15.9118617,74.6654681 C15.9118617,75.9461313 16.6920702,76.2989896 17.4069104,76.2989896 C18.1379924,76.2989896 18.9595072,75.9625527 18.9595072,74.6816892 L18.9595072,70.9546489 L19.7591657,70.9546489 Z" id="Fill-16" fill="#6F6F6E" mask="url(#mask-4)"></path>
                        <polygon id="Fill-17" fill="#6F6F6E" mask="url(#mask-4)" points="22.7429268 76.8492242 21.9047691 76.8492242 20.3682136 70.9557704 21.2308342 70.9557704 22.3320691 75.7489953 22.3485115 75.7489953 23.6715172 70.9557704 24.5425596 70.9557704 25.8655654 75.7489953 25.8818072 75.7489953 26.9830421 70.9557704 27.8623055 70.9557704 26.3093077 76.8492242 25.4709495 76.8492242 24.1234807 71.967284 24.1070384 71.967284"></polygon>
                        <path d="M33.7408586,73.9022369 C33.7408586,72.6297844 33.0645175,70.8044138 30.859441,70.8044138 C28.6547656,70.8044138 27.9784245,72.6297844 27.9784245,73.9022369 C27.9784245,75.1746895 28.6547656,77.0000601 30.859441,77.0000601 C33.0645175,77.0000601 33.7408586,75.1746895 33.7408586,73.9022369 M32.9161355,73.9022369 C32.9161355,75.2896388 32.1427446,76.2991498 30.859441,76.2991498 C29.5763379,76.2991498 28.8031475,75.2896388 28.8031475,73.9022369 C28.8031475,72.5150354 29.5763379,71.5053241 30.859441,71.5053241 C32.1427446,71.5053241 32.9161355,72.5150354 32.9161355,73.9022369" id="Fill-18" fill="#6F6F6E" mask="url(#mask-4)"></path>
                        <polygon id="Fill-19" fill="#6F6F6E" mask="url(#mask-4)" points="38.4333183 70.9558304 39.2079124 70.9558304 39.2079124 76.8486835 38.3102014 76.8486835 35.3142891 72.0925066 35.2978467 72.0925066 35.2978467 76.8486835 34.5232527 76.8486835 34.5232527 70.9558304 35.4702907 70.9558304 38.416876 75.7120073 38.4333183 75.7120073"></polygon>
                        <path d="M46.5614625,72.7284325 C46.3396916,71.6942895 45.4762689,71.5054442 44.9090086,71.5054442 C43.8402573,71.5054442 42.9770352,72.2934676 42.9770352,73.8446822 C42.9770352,75.232084 43.470305,76.2990697 44.9336721,76.2990697 C45.4516054,76.2990697 46.3479128,76.0529501 46.6190107,74.6821698 L47.3918,74.6821698 C47.0629535,76.9022531 45.2542975,76.99998 44.8103547,76.99998 C43.470305,76.99998 42.1523121,76.1350567 42.1523121,73.8695144 C42.1523121,72.0555586 43.1905849,70.8045339 44.9090086,70.8045339 C46.4299239,70.8045339 47.2191556,71.7435534 47.3342519,72.7284325 L46.5614625,72.7284325 Z" id="Fill-20" fill="#6F6F6E" mask="url(#mask-4)"></path>
                        <polygon id="Fill-21" fill="#6F6F6E" mask="url(#mask-4)" points="48.3119688 76.8498049 49.1116274 76.8498049 49.1116274 70.954749 48.3119688 70.954749"></polygon>
                        <polygon id="Fill-22" fill="#6F6F6E" mask="url(#mask-4)" points="49.7885299 70.9546489 54.5838745 70.9546489 54.5838745 71.6555592 52.5859312 71.6555592 52.5859312 76.8497048 51.7862727 76.8497048 51.7862727 71.6555592 49.7885299 71.6555592"></polygon>
                        <polygon id="Fill-23" fill="#6F6F6E" mask="url(#mask-4)" points="57.6828722 76.8498049 56.8832136 76.8498049 56.8832136 74.4769233 54.6550778 70.954749 55.5840693 70.954749 57.2786316 73.7872276 58.9735949 70.954749 59.9108075 70.954749 57.6828722 74.4769233"></polygon>
                    </g>
                </g>
            </g>
        </g>
    </g>
</svg>